(module fab-ELECTRET_2742PBJ-A (layer F.Cu) (tedit 200000)
  (attr smd)
  (fp_text reference "" (at 0 0) (layer F.SilkS)
    (effects (font (size 1.27 1.27) (thickness 0.15)))
  )
  (fp_text value "" (at 0 0) (layer F.SilkS)
    (effects (font (size 1.27 1.27) (thickness 0.15)))
  )
  (pad P$1 smd rect (at -0.9525 0) (size 1.016 1.905) (layers F.Cu F.Paste F.Mask))
  (pad P$2 smd rect (at 0.9525 0) (size 1.016 1.905) (layers F.Cu F.Paste F.Mask))
)
