(module fab-SOIC14 (layer F.Cu) (tedit 200000)
  (descr "SMALL OUTLINE PACKAGE")
  (tags "SMALL OUTLINE PACKAGE")
  (attr smd)
  (fp_text reference >NAME (at -5.1435 -1.143 90) (layer F.SilkS)
    (effects (font (size 1.27 1.27) (thickness 0.127)))
  )
  (fp_text value >VALUE (at 1.27 0.0635) (layer F.SilkS)
    (effects (font (size 1.27 1.27) (thickness 0.127)))
  )
  (fp_line (start -3.9878 -1.8415) (end -3.62966 -1.8415) (layer F.SilkS) (width 0.06604))
  (fp_line (start -3.62966 -1.8415) (end -3.62966 -2.8575) (layer F.SilkS) (width 0.06604))
  (fp_line (start -3.9878 -2.8575) (end -3.62966 -2.8575) (layer F.SilkS) (width 0.06604))
  (fp_line (start -3.9878 -1.8415) (end -3.9878 -2.8575) (layer F.SilkS) (width 0.06604))
  (fp_line (start -2.7178 -1.8415) (end -2.3622 -1.8415) (layer F.SilkS) (width 0.06604))
  (fp_line (start -2.3622 -1.8415) (end -2.3622 -2.8575) (layer F.SilkS) (width 0.06604))
  (fp_line (start -2.7178 -2.8575) (end -2.3622 -2.8575) (layer F.SilkS) (width 0.06604))
  (fp_line (start -2.7178 -1.8415) (end -2.7178 -2.8575) (layer F.SilkS) (width 0.06604))
  (fp_line (start -1.4478 -1.8415) (end -1.08966 -1.8415) (layer F.SilkS) (width 0.06604))
  (fp_line (start -1.08966 -1.8415) (end -1.08966 -2.8575) (layer F.SilkS) (width 0.06604))
  (fp_line (start -1.4478 -2.8575) (end -1.08966 -2.8575) (layer F.SilkS) (width 0.06604))
  (fp_line (start -1.4478 -1.8415) (end -1.4478 -2.8575) (layer F.SilkS) (width 0.06604))
  (fp_line (start -0.1778 -1.8415) (end 0.1778 -1.8415) (layer F.SilkS) (width 0.06604))
  (fp_line (start 0.1778 -1.8415) (end 0.1778 -2.8575) (layer F.SilkS) (width 0.06604))
  (fp_line (start -0.1778 -2.8575) (end 0.1778 -2.8575) (layer F.SilkS) (width 0.06604))
  (fp_line (start -0.1778 -1.8415) (end -0.1778 -2.8575) (layer F.SilkS) (width 0.06604))
  (fp_line (start 1.08966 -1.8415) (end 1.4478 -1.8415) (layer F.SilkS) (width 0.06604))
  (fp_line (start 1.4478 -1.8415) (end 1.4478 -2.8575) (layer F.SilkS) (width 0.06604))
  (fp_line (start 1.08966 -2.8575) (end 1.4478 -2.8575) (layer F.SilkS) (width 0.06604))
  (fp_line (start 1.08966 -1.8415) (end 1.08966 -2.8575) (layer F.SilkS) (width 0.06604))
  (fp_line (start 2.3622 -1.8415) (end 2.7178 -1.8415) (layer F.SilkS) (width 0.06604))
  (fp_line (start 2.7178 -1.8415) (end 2.7178 -2.8575) (layer F.SilkS) (width 0.06604))
  (fp_line (start 2.3622 -2.8575) (end 2.7178 -2.8575) (layer F.SilkS) (width 0.06604))
  (fp_line (start 2.3622 -1.8415) (end 2.3622 -2.8575) (layer F.SilkS) (width 0.06604))
  (fp_line (start 3.62966 -1.8415) (end 3.9878 -1.8415) (layer F.SilkS) (width 0.06604))
  (fp_line (start 3.9878 -1.8415) (end 3.9878 -2.8575) (layer F.SilkS) (width 0.06604))
  (fp_line (start 3.62966 -2.8575) (end 3.9878 -2.8575) (layer F.SilkS) (width 0.06604))
  (fp_line (start 3.62966 -1.8415) (end 3.62966 -2.8575) (layer F.SilkS) (width 0.06604))
  (fp_line (start 3.62966 2.8575) (end 3.9878 2.8575) (layer F.SilkS) (width 0.06604))
  (fp_line (start 3.9878 2.8575) (end 3.9878 1.8415) (layer F.SilkS) (width 0.06604))
  (fp_line (start 3.62966 1.8415) (end 3.9878 1.8415) (layer F.SilkS) (width 0.06604))
  (fp_line (start 3.62966 2.8575) (end 3.62966 1.8415) (layer F.SilkS) (width 0.06604))
  (fp_line (start 2.3622 2.8575) (end 2.7178 2.8575) (layer F.SilkS) (width 0.06604))
  (fp_line (start 2.7178 2.8575) (end 2.7178 1.8415) (layer F.SilkS) (width 0.06604))
  (fp_line (start 2.3622 1.8415) (end 2.7178 1.8415) (layer F.SilkS) (width 0.06604))
  (fp_line (start 2.3622 2.8575) (end 2.3622 1.8415) (layer F.SilkS) (width 0.06604))
  (fp_line (start 1.08966 2.8575) (end 1.4478 2.8575) (layer F.SilkS) (width 0.06604))
  (fp_line (start 1.4478 2.8575) (end 1.4478 1.8415) (layer F.SilkS) (width 0.06604))
  (fp_line (start 1.08966 1.8415) (end 1.4478 1.8415) (layer F.SilkS) (width 0.06604))
  (fp_line (start 1.08966 2.8575) (end 1.08966 1.8415) (layer F.SilkS) (width 0.06604))
  (fp_line (start -0.1778 2.8575) (end 0.1778 2.8575) (layer F.SilkS) (width 0.06604))
  (fp_line (start 0.1778 2.8575) (end 0.1778 1.8415) (layer F.SilkS) (width 0.06604))
  (fp_line (start -0.1778 1.8415) (end 0.1778 1.8415) (layer F.SilkS) (width 0.06604))
  (fp_line (start -0.1778 2.8575) (end -0.1778 1.8415) (layer F.SilkS) (width 0.06604))
  (fp_line (start -1.4478 2.8575) (end -1.08966 2.8575) (layer F.SilkS) (width 0.06604))
  (fp_line (start -1.08966 2.8575) (end -1.08966 1.8415) (layer F.SilkS) (width 0.06604))
  (fp_line (start -1.4478 1.8415) (end -1.08966 1.8415) (layer F.SilkS) (width 0.06604))
  (fp_line (start -1.4478 2.8575) (end -1.4478 1.8415) (layer F.SilkS) (width 0.06604))
  (fp_line (start -2.7178 2.8575) (end -2.3622 2.8575) (layer F.SilkS) (width 0.06604))
  (fp_line (start -2.3622 2.8575) (end -2.3622 1.8415) (layer F.SilkS) (width 0.06604))
  (fp_line (start -2.7178 1.8415) (end -2.3622 1.8415) (layer F.SilkS) (width 0.06604))
  (fp_line (start -2.7178 2.8575) (end -2.7178 1.8415) (layer F.SilkS) (width 0.06604))
  (fp_line (start -3.9878 2.8575) (end -3.62966 2.8575) (layer F.SilkS) (width 0.06604))
  (fp_line (start -3.62966 2.8575) (end -3.62966 1.8415) (layer F.SilkS) (width 0.06604))
  (fp_line (start -3.9878 1.8415) (end -3.62966 1.8415) (layer F.SilkS) (width 0.06604))
  (fp_line (start -3.9878 2.8575) (end -3.9878 1.8415) (layer F.SilkS) (width 0.06604))
  (fp_line (start -4.26466 1.7907) (end 4.26466 1.7907) (layer F.SilkS) (width 0.1524))
  (fp_line (start 4.26466 1.7907) (end 4.26466 -1.7907) (layer B.SilkS) (width 0.1524))
  (fp_line (start 4.26466 -1.7907) (end -4.26466 -1.7907) (layer F.SilkS) (width 0.1524))
  (fp_line (start -4.26466 -1.7907) (end -4.26466 1.7907) (layer B.SilkS) (width 0.1524))
  (fp_circle (center -3.5052 0.7747) (end -3.7719 1.0414) (layer B.SilkS) (width 0.0762))
  (pad 1 smd rect (at -3.81 2.6035) (size 0.6096 2.20726) (layers F.Cu F.Paste F.Mask))
  (pad 2 smd rect (at -2.54 2.6035) (size 0.6096 2.20726) (layers F.Cu F.Paste F.Mask))
  (pad 3 smd rect (at -1.27 2.6035) (size 0.6096 2.20726) (layers F.Cu F.Paste F.Mask))
  (pad 4 smd rect (at 0 2.6035) (size 0.6096 2.20726) (layers F.Cu F.Paste F.Mask))
  (pad 5 smd rect (at 1.27 2.6035) (size 0.6096 2.20726) (layers F.Cu F.Paste F.Mask))
  (pad 6 smd rect (at 2.54 2.6035) (size 0.6096 2.20726) (layers F.Cu F.Paste F.Mask))
  (pad 7 smd rect (at 3.81 2.6035) (size 0.6096 2.20726) (layers F.Cu F.Paste F.Mask))
  (pad 8 smd rect (at 3.81 -2.6035) (size 0.6096 2.20726) (layers F.Cu F.Paste F.Mask))
  (pad 9 smd rect (at 2.54 -2.6035) (size 0.6096 2.20726) (layers F.Cu F.Paste F.Mask))
  (pad 10 smd rect (at 1.27 -2.6035) (size 0.6096 2.20726) (layers F.Cu F.Paste F.Mask))
  (pad 11 smd rect (at 0 -2.6035) (size 0.6096 2.20726) (layers F.Cu F.Paste F.Mask))
  (pad 12 smd rect (at -1.27 -2.6035) (size 0.6096 2.20726) (layers F.Cu F.Paste F.Mask))
  (pad 13 smd rect (at -2.54 -2.6035) (size 0.6096 2.20726) (layers F.Cu F.Paste F.Mask))
  (pad 14 smd rect (at -3.81 -2.6035) (size 0.6096 2.20726) (layers F.Cu F.Paste F.Mask))
)
