(module fab-3.5MMTERM (layer F.Cu) (tedit 200000)
  (attr virtual)
  (fp_text reference >NAME (at -0.17272 -4.36372 180) (layer F.SilkS)
    (effects (font (size 1.27 1.27) (thickness 0.1016)))
  )
  (fp_text value "" (at 0 0) (layer F.SilkS)
    (effects (font (size 1.27 1.27) (thickness 0.15)))
  )
  (fp_line (start -3.39852 -3.39852) (end -3.39852 2.19964) (layer B.SilkS) (width 0.127))
  (fp_line (start -3.39852 2.19964) (end -3.39852 3.59918) (layer B.SilkS) (width 0.127))
  (fp_line (start -3.39852 3.59918) (end 3.59918 3.59918) (layer B.SilkS) (width 0.127))
  (fp_line (start 3.59918 3.59918) (end 3.59918 2.19964) (layer B.SilkS) (width 0.127))
  (fp_line (start 3.59918 2.19964) (end 3.59918 -3.39852) (layer B.SilkS) (width 0.127))
  (fp_line (start 3.59918 -3.39852) (end -3.39852 -3.39852) (layer B.SilkS) (width 0.127))
  (fp_line (start -3.39852 2.19964) (end 3.59918 2.19964) (layer B.SilkS) (width 0.127))
  (pad 1 thru_hole circle (at 1.79832 0) (size 2.18186 2.18186) (drill 0.99822) (layers F&B.Cu F.Paste F.SilkS F.Mask))
  (pad 2 thru_hole circle (at -1.69926 0) (size 2.18186 2.18186) (drill 0.99822) (layers F&B.Cu F.Paste F.SilkS F.Mask))
)
