(module fab-SOD123 (layer F.Cu) (tedit 200000)
  (descr "SMALL OUTLINE DIODE")
  (tags "SMALL OUTLINE DIODE")
  (attr smd)
  (fp_text reference >NAME (at 1.27 -2.54) (layer F.SilkS)
    (effects (font (size 1.27 1.27) (thickness 0.1016)))
  )
  (fp_text value >VALUE (at 1.905 2.54) (layer F.SilkS)
    (effects (font (size 1.27 1.27) (thickness 0.1016)))
  )
  (fp_line (start -1.9558 0.3048) (end -1.3716 0.3048) (layer F.SilkS) (width 0.06604))
  (fp_line (start -1.3716 0.3048) (end -1.3716 -0.3048) (layer F.SilkS) (width 0.06604))
  (fp_line (start -1.9558 -0.3048) (end -1.3716 -0.3048) (layer F.SilkS) (width 0.06604))
  (fp_line (start -1.9558 0.3048) (end -1.9558 -0.3048) (layer F.SilkS) (width 0.06604))
  (fp_line (start 1.3716 0.3048) (end 1.9558 0.3048) (layer F.SilkS) (width 0.06604))
  (fp_line (start 1.9558 0.3048) (end 1.9558 -0.3048) (layer F.SilkS) (width 0.06604))
  (fp_line (start 1.3716 -0.3048) (end 1.9558 -0.3048) (layer F.SilkS) (width 0.06604))
  (fp_line (start 1.3716 0.3048) (end 1.3716 -0.3048) (layer F.SilkS) (width 0.06604))
  (fp_line (start -0.39878 0.6985) (end 0.39878 0.6985) (layer F.SilkS) (width 0.06604))
  (fp_line (start 0.39878 0.6985) (end 0.39878 -0.6985) (layer F.SilkS) (width 0.06604))
  (fp_line (start -0.39878 -0.6985) (end 0.39878 -0.6985) (layer F.SilkS) (width 0.06604))
  (fp_line (start -0.39878 0.6985) (end -0.39878 -0.6985) (layer F.SilkS) (width 0.06604))
  (fp_line (start -2.9718 -0.98298) (end 2.9718 -0.98298) (layer F.SilkS) (width 0.0508))
  (fp_line (start 2.9718 0.98298) (end -2.9718 0.98298) (layer F.SilkS) (width 0.0508))
  (fp_line (start -2.9718 0.98298) (end -2.9718 -0.98298) (layer F.SilkS) (width 0.0508))
  (fp_line (start 2.9718 -0.98298) (end 2.9718 0.98298) (layer F.SilkS) (width 0.0508))
  (fp_line (start -1.3208 -0.78486) (end 1.3208 -0.78486) (layer F.SilkS) (width 0.1016))
  (fp_line (start -1.3208 0.78486) (end 1.3208 0.78486) (layer F.SilkS) (width 0.1016))
  (fp_line (start -1.3208 0.78486) (end -1.3208 -0.78486) (layer F.SilkS) (width 0.1016))
  (fp_line (start 1.3208 0.78486) (end 1.3208 -0.78486) (layer F.SilkS) (width 0.1016))
  (fp_line (start -0.99822 0) (end 0 -0.49784) (layer F.SilkS) (width 0.2032))
  (fp_line (start 0 -0.49784) (end 0 0.49784) (layer F.SilkS) (width 0.2032))
  (fp_line (start 0 0.49784) (end -0.99822 0) (layer F.SilkS) (width 0.2032))
  (fp_line (start -0.99822 -0.49784) (end -0.99822 0) (layer F.SilkS) (width 0.2032))
  (fp_line (start -0.99822 0) (end -0.99822 0.49784) (layer F.SilkS) (width 0.2032))
  (pad ANODE smd rect (at 1.69926 0) (size 1.59766 0.79756) (layers F.Cu F.Paste F.Mask))
  (pad CATHODE smd rect (at -1.69926 0) (size 1.59766 0.79756) (layers F.Cu F.Paste F.Mask))
)
