(module fab-SJFAB (layer F.Cu) (tedit 200000)
  (attr smd)
  (fp_text reference >NAME (at 1.524 -1.778) (layer F.SilkS)
    (effects (font (size 1.27 1.27) (thickness 0.127)))
  )
  (fp_text value >VALUE (at 0.45974 -0.00762) (layer F.SilkS)
    (effects (font (size 0.01778 0.01778) (thickness 0.000001)))
  )
  (fp_line (start 1.397 1.016) (end -1.397 1.016) (layer B.SilkS) (width 0.1524))
  (fp_line (start 1.651 0.762) (end 1.651 -0.762) (layer B.SilkS) (width 0.1524))
  (fp_line (start -1.651 0.762) (end -1.651 -0.762) (layer B.SilkS) (width 0.1524))
  (fp_line (start -1.397 -1.016) (end 1.397 -1.016) (layer B.SilkS) (width 0.1524))
  (fp_line (start 1.016 0) (end 1.524 0) (layer F.SilkS) (width 0.1524))
  (fp_line (start -1.016 0) (end -1.524 0) (layer F.SilkS) (width 0.1524))
  (fp_arc (start 1.397 -0.762) (end 1.397 -1.016) (angle 90) (layer B.SilkS) (width 0.1524))
  (fp_arc (start -1.397 -0.762) (end -1.651 -0.762) (angle 90) (layer B.SilkS) (width 0.1524))
  (fp_arc (start -1.397 0.762) (end -1.397 1.016) (angle 90) (layer B.SilkS) (width 0.1524))
  (fp_arc (start 1.397 0.762) (end 1.651 0.762) (angle 90) (layer B.SilkS) (width 0.1524))
  (fp_arc (start -0.254 0) (end -0.254 0.127) (angle 180) (layer F.SilkS) (width 1.27))
  (fp_arc (start 0.254 0) (end 0.254 -0.127) (angle 180) (layer F.SilkS) (width 1.27))
  (pad 1 smd rect (at -0.7874 0) (size 1.1176 1.6002) (layers F.Cu F.Paste F.Mask))
  (pad 2 smd rect (at 0.7874 0) (size 1.1176 1.6002) (layers F.Cu F.Paste F.Mask))
)
