<?xml version="1.0" encoding="utf-8"?>
<!DOCTYPE eagle SYSTEM "eagle.dtd">
<eagle version="9.2.2">
<drawing>
<settings>
<setting alwaysvectorfont="no"/>
<setting verticaltext="up"/>
</settings>
<grid distance="1" unitdist="mm" unit="mm" style="lines" multiple="1" display="yes" altdistance="5" altunitdist="mil" altunit="mil"/>
<layers>
<layer number="1" name="Top" color="4" fill="1" visible="yes" active="yes"/>
<layer number="2" name="Route2" color="1" fill="3" visible="yes" active="yes"/>
<layer number="3" name="Route3" color="4" fill="3" visible="yes" active="yes"/>
<layer number="4" name="Route4" color="1" fill="4" visible="yes" active="yes"/>
<layer number="5" name="Route5" color="4" fill="4" visible="yes" active="yes"/>
<layer number="6" name="Route6" color="1" fill="8" visible="yes" active="yes"/>
<layer number="7" name="Route7" color="4" fill="8" visible="yes" active="yes"/>
<layer number="8" name="Route8" color="1" fill="2" visible="yes" active="yes"/>
<layer number="9" name="Route9" color="4" fill="2" visible="yes" active="yes"/>
<layer number="10" name="Route10" color="1" fill="7" visible="yes" active="yes"/>
<layer number="11" name="Route11" color="4" fill="7" visible="yes" active="yes"/>
<layer number="12" name="Route12" color="1" fill="5" visible="yes" active="yes"/>
<layer number="13" name="Route13" color="4" fill="5" visible="yes" active="yes"/>
<layer number="14" name="Route14" color="1" fill="6" visible="yes" active="yes"/>
<layer number="15" name="Route15" color="4" fill="6" visible="yes" active="yes"/>
<layer number="16" name="Bottom" color="1" fill="1" visible="yes" active="yes"/>
<layer number="17" name="Pads" color="2" fill="1" visible="yes" active="yes"/>
<layer number="18" name="Vias" color="2" fill="1" visible="yes" active="yes"/>
<layer number="19" name="Unrouted" color="6" fill="1" visible="yes" active="yes"/>
<layer number="20" name="Dimension" color="24" fill="1" visible="yes" active="yes"/>
<layer number="21" name="tPlace" color="7" fill="1" visible="yes" active="yes"/>
<layer number="22" name="bPlace" color="7" fill="1" visible="yes" active="yes"/>
<layer number="23" name="tOrigins" color="15" fill="1" visible="yes" active="yes"/>
<layer number="24" name="bOrigins" color="15" fill="1" visible="yes" active="yes"/>
<layer number="25" name="tNames" color="7" fill="1" visible="yes" active="yes"/>
<layer number="26" name="bNames" color="7" fill="1" visible="yes" active="yes"/>
<layer number="27" name="tValues" color="7" fill="1" visible="yes" active="yes"/>
<layer number="28" name="bValues" color="7" fill="1" visible="yes" active="yes"/>
<layer number="29" name="tStop" color="7" fill="3" visible="yes" active="yes"/>
<layer number="30" name="bStop" color="7" fill="6" visible="yes" active="yes"/>
<layer number="31" name="tCream" color="7" fill="4" visible="yes" active="yes"/>
<layer number="32" name="bCream" color="7" fill="5" visible="yes" active="yes"/>
<layer number="33" name="tFinish" color="6" fill="3" visible="yes" active="yes"/>
<layer number="34" name="bFinish" color="6" fill="6" visible="yes" active="yes"/>
<layer number="35" name="tGlue" color="7" fill="4" visible="yes" active="yes"/>
<layer number="36" name="bGlue" color="7" fill="5" visible="yes" active="yes"/>
<layer number="37" name="tTest" color="7" fill="1" visible="yes" active="yes"/>
<layer number="38" name="bTest" color="7" fill="1" visible="yes" active="yes"/>
<layer number="39" name="tKeepout" color="4" fill="11" visible="yes" active="yes"/>
<layer number="40" name="bKeepout" color="1" fill="11" visible="yes" active="yes"/>
<layer number="41" name="tRestrict" color="4" fill="10" visible="yes" active="yes"/>
<layer number="42" name="bRestrict" color="1" fill="10" visible="yes" active="yes"/>
<layer number="43" name="vRestrict" color="2" fill="10" visible="yes" active="yes"/>
<layer number="44" name="Drills" color="7" fill="1" visible="yes" active="yes"/>
<layer number="45" name="Holes" color="7" fill="1" visible="yes" active="yes"/>
<layer number="46" name="Milling" color="3" fill="1" visible="yes" active="yes"/>
<layer number="47" name="Measures" color="7" fill="1" visible="yes" active="yes"/>
<layer number="48" name="Document" color="7" fill="1" visible="yes" active="yes"/>
<layer number="49" name="Reference" color="7" fill="1" visible="yes" active="yes"/>
<layer number="50" name="dxf" color="7" fill="1" visible="no" active="no"/>
<layer number="51" name="tDocu" color="7" fill="1" visible="yes" active="yes"/>
<layer number="52" name="bDocu" color="7" fill="1" visible="yes" active="yes"/>
<layer number="53" name="tGND_GNDA" color="7" fill="9" visible="no" active="no"/>
<layer number="54" name="bGND_GNDA" color="1" fill="9" visible="no" active="no"/>
<layer number="56" name="wert" color="7" fill="1" visible="no" active="no"/>
<layer number="57" name="tCAD" color="7" fill="1" visible="no" active="no"/>
<layer number="59" name="tCarbon" color="7" fill="1" visible="no" active="no"/>
<layer number="60" name="bCarbon" color="7" fill="1" visible="no" active="no"/>
<layer number="88" name="SimResults" color="9" fill="1" visible="yes" active="yes"/>
<layer number="89" name="SimProbes" color="9" fill="1" visible="yes" active="yes"/>
<layer number="90" name="Modules" color="5" fill="1" visible="yes" active="yes"/>
<layer number="91" name="Nets" color="2" fill="1" visible="yes" active="yes"/>
<layer number="92" name="Busses" color="1" fill="1" visible="yes" active="yes"/>
<layer number="93" name="Pins" color="2" fill="1" visible="yes" active="yes"/>
<layer number="94" name="Symbols" color="4" fill="1" visible="yes" active="yes"/>
<layer number="95" name="Names" color="7" fill="1" visible="yes" active="yes"/>
<layer number="96" name="Values" color="7" fill="1" visible="yes" active="yes"/>
<layer number="97" name="Info" color="7" fill="1" visible="yes" active="yes"/>
<layer number="98" name="Guide" color="6" fill="1" visible="yes" active="yes"/>
<layer number="99" name="SpiceOrder" color="5" fill="1" visible="yes" active="yes"/>
<layer number="100" name="Muster" color="7" fill="1" visible="no" active="no"/>
<layer number="101" name="Patch_Top" color="12" fill="4" visible="yes" active="yes"/>
<layer number="102" name="Vscore" color="7" fill="1" visible="yes" active="yes"/>
<layer number="103" name="tMap" color="7" fill="1" visible="yes" active="yes"/>
<layer number="104" name="Name" color="16" fill="1" visible="yes" active="yes"/>
<layer number="105" name="tPlate" color="7" fill="1" visible="yes" active="yes"/>
<layer number="106" name="bPlate" color="7" fill="1" visible="yes" active="yes"/>
<layer number="107" name="Crop" color="7" fill="1" visible="yes" active="yes"/>
<layer number="108" name="tplace-old" color="10" fill="1" visible="yes" active="yes"/>
<layer number="109" name="ref-old" color="11" fill="1" visible="yes" active="yes"/>
<layer number="110" name="fp0" color="7" fill="1" visible="yes" active="yes"/>
<layer number="111" name="LPC17xx" color="7" fill="1" visible="yes" active="yes"/>
<layer number="112" name="tSilk" color="7" fill="1" visible="yes" active="yes"/>
<layer number="113" name="IDFDebug" color="7" fill="1" visible="yes" active="yes"/>
<layer number="114" name="Badge_Outline" color="7" fill="1" visible="yes" active="yes"/>
<layer number="115" name="ReferenceISLANDS" color="7" fill="1" visible="yes" active="yes"/>
<layer number="116" name="Patch_BOT" color="9" fill="4" visible="yes" active="yes"/>
<layer number="117" name="BACKMAAT1" color="7" fill="1" visible="yes" active="yes"/>
<layer number="118" name="Rect_Pads" color="7" fill="1" visible="yes" active="yes"/>
<layer number="119" name="KAP_TEKEN" color="7" fill="1" visible="yes" active="yes"/>
<layer number="120" name="KAP_MAAT1" color="7" fill="1" visible="yes" active="yes"/>
<layer number="121" name="_tsilk" color="7" fill="1" visible="yes" active="yes"/>
<layer number="122" name="_bsilk" color="7" fill="1" visible="yes" active="yes"/>
<layer number="123" name="tTestmark" color="7" fill="1" visible="yes" active="yes"/>
<layer number="124" name="bTestmark" color="7" fill="1" visible="yes" active="yes"/>
<layer number="125" name="_tNames" color="7" fill="1" visible="yes" active="yes"/>
<layer number="126" name="_bNames" color="7" fill="1" visible="yes" active="yes"/>
<layer number="127" name="_tValues" color="7" fill="1" visible="yes" active="yes"/>
<layer number="128" name="_bValues" color="7" fill="1" visible="yes" active="yes"/>
<layer number="129" name="Mask" color="7" fill="1" visible="yes" active="yes"/>
<layer number="130" name="SMDSTROOK" color="7" fill="1" visible="yes" active="yes"/>
<layer number="131" name="tAdjust" color="7" fill="1" visible="yes" active="yes"/>
<layer number="132" name="bAdjust" color="7" fill="1" visible="yes" active="yes"/>
<layer number="133" name="bottom_silk" color="7" fill="1" visible="yes" active="yes"/>
<layer number="144" name="Drill_legend" color="7" fill="1" visible="yes" active="yes"/>
<layer number="150" name="Notes" color="7" fill="1" visible="yes" active="yes"/>
<layer number="151" name="HeatSink" color="7" fill="1" visible="yes" active="yes"/>
<layer number="152" name="_bDocu" color="7" fill="1" visible="yes" active="yes"/>
<layer number="153" name="FabDoc1" color="7" fill="1" visible="yes" active="yes"/>
<layer number="154" name="FabDoc2" color="7" fill="1" visible="yes" active="yes"/>
<layer number="155" name="FabDoc3" color="7" fill="1" visible="yes" active="yes"/>
<layer number="199" name="Contour" color="7" fill="1" visible="yes" active="yes"/>
<layer number="200" name="200bmp" color="1" fill="10" visible="yes" active="yes"/>
<layer number="201" name="201bmp" color="2" fill="10" visible="yes" active="yes"/>
<layer number="202" name="202bmp" color="3" fill="10" visible="yes" active="yes"/>
<layer number="203" name="203bmp" color="4" fill="10" visible="yes" active="yes"/>
<layer number="204" name="204bmp" color="5" fill="10" visible="yes" active="yes"/>
<layer number="205" name="205bmp" color="6" fill="10" visible="yes" active="yes"/>
<layer number="206" name="206bmp" color="7" fill="10" visible="yes" active="yes"/>
<layer number="207" name="207bmp" color="8" fill="10" visible="yes" active="yes"/>
<layer number="208" name="208bmp" color="9" fill="10" visible="yes" active="yes"/>
<layer number="209" name="209bmp" color="7" fill="1" visible="yes" active="yes"/>
<layer number="210" name="210bmp" color="7" fill="1" visible="yes" active="yes"/>
<layer number="211" name="211bmp" color="7" fill="1" visible="yes" active="yes"/>
<layer number="212" name="212bmp" color="7" fill="1" visible="yes" active="yes"/>
<layer number="213" name="213bmp" color="7" fill="1" visible="yes" active="yes"/>
<layer number="214" name="214bmp" color="7" fill="1" visible="yes" active="yes"/>
<layer number="215" name="215bmp" color="7" fill="1" visible="yes" active="yes"/>
<layer number="216" name="216bmp" color="7" fill="1" visible="yes" active="yes"/>
<layer number="217" name="217bmp" color="18" fill="1" visible="no" active="no"/>
<layer number="218" name="218bmp" color="19" fill="1" visible="no" active="no"/>
<layer number="219" name="219bmp" color="20" fill="1" visible="no" active="no"/>
<layer number="220" name="220bmp" color="21" fill="1" visible="no" active="no"/>
<layer number="221" name="221bmp" color="22" fill="1" visible="no" active="no"/>
<layer number="222" name="222bmp" color="23" fill="1" visible="no" active="no"/>
<layer number="223" name="223bmp" color="24" fill="1" visible="no" active="no"/>
<layer number="224" name="224bmp" color="25" fill="1" visible="no" active="no"/>
<layer number="225" name="225bmp" color="7" fill="1" visible="yes" active="yes"/>
<layer number="226" name="226bmp" color="7" fill="1" visible="yes" active="yes"/>
<layer number="227" name="227bmp" color="7" fill="1" visible="yes" active="yes"/>
<layer number="228" name="228bmp" color="7" fill="1" visible="yes" active="yes"/>
<layer number="229" name="229bmp" color="7" fill="1" visible="yes" active="yes"/>
<layer number="230" name="230bmp" color="7" fill="1" visible="yes" active="yes"/>
<layer number="231" name="231bmp" color="7" fill="1" visible="yes" active="yes"/>
<layer number="232" name="Eagle3D_PG2" color="7" fill="1" visible="yes" active="yes"/>
<layer number="233" name="Eagle3D_PG3" color="7" fill="1" visible="yes" active="yes"/>
<layer number="248" name="Housing" color="7" fill="1" visible="yes" active="yes"/>
<layer number="249" name="Edge" color="7" fill="1" visible="yes" active="yes"/>
<layer number="250" name="Descript" color="3" fill="1" visible="no" active="no"/>
<layer number="251" name="SMDround" color="12" fill="11" visible="no" active="no"/>
<layer number="254" name="cooling" color="7" fill="1" visible="yes" active="yes"/>
<layer number="255" name="routoute" color="7" fill="1" visible="yes" active="yes"/>
</layers>
<library>
<packages>
<package name="0805">
<smd name="1" x="-0.95" y="0" dx="0.7" dy="1.2" layer="1"/>
<smd name="2" x="0.95" y="0" dx="0.7" dy="1.2" layer="1"/>
<text x="-0.762" y="0.8255" size="1.016" layer="25">&gt;NAME</text>
<text x="-1.016" y="-2.032" size="1.016" layer="27">&gt;VALUE</text>
</package>
<package name="0603-CAP">
<wire x1="-0.356" y1="0.332" x2="0.356" y2="0.332" width="0.1016" layer="51"/>
<wire x1="-0.356" y1="-0.319" x2="0.356" y2="-0.319" width="0.1016" layer="51"/>
<smd name="1" x="-0.8" y="0" dx="0.8" dy="0.95" layer="1"/>
<smd name="2" x="0.8" y="0" dx="0.8" dy="0.95" layer="1"/>
<text x="-0.889" y="1.397" size="1.016" layer="25">&gt;NAME</text>
<text x="-1.016" y="-2.413" size="1.016" layer="27">&gt;VALUE</text>
<rectangle x1="-0.8382" y1="-0.4" x2="-0.3381" y2="0.4" layer="51"/>
<rectangle x1="0.3302" y1="-0.4" x2="0.8303" y2="0.4" layer="51"/>
</package>
<package name="0402-CAP">
<description>&lt;b&gt;CAPACITOR&lt;/b&gt;&lt;p&gt;
chip</description>
<wire x1="-0.245" y1="0.224" x2="0.245" y2="0.224" width="0.1524" layer="51"/>
<wire x1="0.245" y1="-0.224" x2="-0.245" y2="-0.224" width="0.1524" layer="51"/>
<wire x1="-1.473" y1="0.483" x2="1.473" y2="0.483" width="0.0508" layer="39"/>
<wire x1="1.473" y1="0.483" x2="1.473" y2="-0.483" width="0.0508" layer="39"/>
<wire x1="1.473" y1="-0.483" x2="-1.473" y2="-0.483" width="0.0508" layer="39"/>
<wire x1="-1.473" y1="-0.483" x2="-1.473" y2="0.483" width="0.0508" layer="39"/>
<wire x1="0" y1="0.0305" x2="0" y2="-0.0305" width="0.4064" layer="21"/>
<smd name="1" x="-0.65" y="0" dx="0.7" dy="0.9" layer="1"/>
<smd name="2" x="0.65" y="0" dx="0.7" dy="0.9" layer="1"/>
<text x="-0.889" y="0.6985" size="1.016" layer="25">&gt;NAME</text>
<text x="-1.0795" y="-2.413" size="1.016" layer="27">&gt;VALUE</text>
<rectangle x1="-0.554" y1="-0.3048" x2="-0.254" y2="0.2951" layer="51"/>
<rectangle x1="0.2588" y1="-0.3048" x2="0.5588" y2="0.2951" layer="51"/>
<rectangle x1="-0.1999" y1="-0.3" x2="0.1999" y2="0.3" layer="35"/>
</package>
<package name="1210">
<wire x1="-1.6" y1="1.3" x2="1.6" y2="1.3" width="0.127" layer="51"/>
<wire x1="1.6" y1="1.3" x2="1.6" y2="-1.3" width="0.127" layer="51"/>
<wire x1="1.6" y1="-1.3" x2="-1.6" y2="-1.3" width="0.127" layer="51"/>
<wire x1="-1.6" y1="-1.3" x2="-1.6" y2="1.3" width="0.127" layer="51"/>
<wire x1="-1.6" y1="1.3" x2="1.6" y2="1.3" width="0.2032" layer="51"/>
<wire x1="-1.6" y1="-1.3" x2="1.6" y2="-1.3" width="0.2032" layer="51"/>
<smd name="1" x="-1.6" y="0" dx="1.2" dy="2.5" layer="1"/>
<smd name="2" x="1.6" y="0" dx="1.2" dy="2.5" layer="1"/>
<text x="-2.07" y="1.77" size="1.016" layer="25">&gt;NAME</text>
<text x="-2.17" y="-3.24" size="1.016" layer="27">&gt;VALUE</text>
</package>
<package name="1206">
<wire x1="-0.965" y1="0.787" x2="0.965" y2="0.787" width="0.1016" layer="51"/>
<wire x1="-0.965" y1="-0.787" x2="0.965" y2="-0.787" width="0.1016" layer="51"/>
<smd name="1" x="-1.4" y="0" dx="1.6" dy="1.8" layer="1"/>
<smd name="2" x="1.4" y="0" dx="1.6" dy="1.8" layer="1"/>
<text x="-1.27" y="1.143" size="1.016" layer="25">&gt;NAME</text>
<text x="-1.397" y="-2.794" size="1.016" layer="27">&gt;VALUE</text>
<rectangle x1="-1.7018" y1="-0.8509" x2="-0.9517" y2="0.8491" layer="51"/>
<rectangle x1="0.9517" y1="-0.8491" x2="1.7018" y2="0.8509" layer="51"/>
<rectangle x1="-0.1999" y1="-0.4001" x2="0.1999" y2="0.4001" layer="35"/>
</package>
<package name="744777920-INDUCTOR">
<smd name="P$1" x="0" y="3" dx="1.7" dy="2" layer="1"/>
<smd name="P$2" x="0" y="-3" dx="1.7" dy="2" layer="1"/>
<wire x1="-4" y1="0" x2="-4" y2="3" width="0.127" layer="21"/>
<wire x1="-4" y1="3" x2="-3" y2="4" width="0.127" layer="21" curve="-90"/>
<wire x1="-3" y1="4" x2="3" y2="4" width="0.127" layer="21"/>
<wire x1="3" y1="4" x2="4" y2="3" width="0.127" layer="21" curve="-90"/>
<wire x1="4" y1="3" x2="4" y2="-3" width="0.127" layer="21"/>
<wire x1="4" y1="-3" x2="3" y2="-4" width="0.127" layer="21" curve="-90"/>
<wire x1="3" y1="-4" x2="-3" y2="-4" width="0.127" layer="21"/>
<wire x1="-3" y1="-4" x2="-4" y2="-3" width="0.127" layer="21" curve="-90"/>
<wire x1="-4" y1="-3" x2="-4" y2="0" width="0.127" layer="21"/>
<rectangle x1="-4" y1="-4" x2="4" y2="4" layer="39"/>
<text x="5.08" y="2.54" size="1.016" layer="25">&gt;NAME</text>
<text x="5.08" y="1.27" size="1.016" layer="27">&gt;VALUE</text>
</package>
<package name="0603-RES">
<wire x1="-0.356" y1="0.432" x2="0.356" y2="0.432" width="0.1016" layer="51"/>
<wire x1="-0.356" y1="-0.419" x2="0.356" y2="-0.419" width="0.1016" layer="51"/>
<smd name="1" x="-0.85" y="0" dx="1.1" dy="1" layer="1"/>
<smd name="2" x="0.85" y="0" dx="1.1" dy="1" layer="1"/>
<text x="-0.889" y="1.397" size="1.016" layer="25">&gt;NAME</text>
<text x="-1.016" y="-2.413" size="1.016" layer="27" ratio="10">&gt;VALUE</text>
<rectangle x1="-0.8382" y1="-0.4699" x2="-0.3381" y2="0.4801" layer="51"/>
<rectangle x1="0.3302" y1="-0.4699" x2="0.8303" y2="0.4801" layer="51"/>
<rectangle x1="-0.1999" y1="-0.3" x2="0.1999" y2="0.3" layer="35"/>
<rectangle x1="-0.2286" y1="-0.381" x2="0.2286" y2="0.381" layer="21"/>
</package>
<package name="SPM6530-IND">
<smd name="1" x="0" y="2.775" dx="3.4" dy="1.85" layer="1"/>
<smd name="2" x="0" y="-2.775" dx="3.4" dy="1.85" layer="1"/>
<wire x1="-3.25" y1="3.85" x2="-3.25" y2="-3.85" width="0.127" layer="21"/>
<wire x1="-3.25" y1="-3.85" x2="3.25" y2="-3.85" width="0.127" layer="21"/>
<wire x1="3.25" y1="-3.85" x2="3.25" y2="3.85" width="0.127" layer="21"/>
<wire x1="3.25" y1="3.85" x2="-3.25" y2="3.85" width="0.127" layer="21"/>
<text x="3.81" y="2.54" size="1.016" layer="25">&gt;NAME</text>
<text x="3.81" y="-3.81" size="1.016" layer="27">&gt;VALUE</text>
</package>
<package name="IHLP-5050FD-01-IND">
<smd name="1" x="0" y="5.4102" dx="4.953" dy="2.9464" layer="1"/>
<smd name="2" x="0" y="-5.4102" dx="4.953" dy="2.9464" layer="1"/>
<wire x1="6.4516" y1="6.604" x2="6.4516" y2="-6.604" width="0.127" layer="21"/>
<wire x1="3.81" y1="-6.604" x2="6.4516" y2="-6.604" width="0.127" layer="21"/>
<wire x1="6.4516" y1="6.604" x2="3.81" y2="6.604" width="0.127" layer="21"/>
<wire x1="-3.81" y1="6.604" x2="-6.4516" y2="6.604" width="0.127" layer="21"/>
<wire x1="-6.4516" y1="6.604" x2="-6.4516" y2="-6.604" width="0.127" layer="21"/>
<wire x1="-6.4516" y1="-6.604" x2="-3.81" y2="-6.604" width="0.127" layer="21"/>
<text x="5.08" y="7.62" size="1.016" layer="25">&gt;NAME</text>
<text x="5.08" y="-8.89" size="1.016" layer="27">&gt;VALUE</text>
</package>
<package name="7443340330-IND">
<smd name="P$1" x="0" y="3.35" dx="3" dy="2.3" layer="1"/>
<smd name="P$2" x="0" y="-3.35" dx="3" dy="2.3" layer="1"/>
<wire x1="-2" y1="4" x2="-4" y2="4" width="0.127" layer="21"/>
<wire x1="-4" y1="4" x2="-4" y2="-4" width="0.127" layer="21"/>
<wire x1="-4" y1="-4" x2="-2" y2="-4" width="0.127" layer="21"/>
<wire x1="2" y1="-4" x2="4" y2="-4" width="0.127" layer="21"/>
<wire x1="4" y1="-4" x2="4" y2="4" width="0.127" layer="21"/>
<wire x1="4" y1="4" x2="2" y2="4" width="0.127" layer="21"/>
<text x="3" y="5" size="1.016" layer="25">&gt;NAME</text>
<text x="3" y="-6" size="1.016" layer="27">&gt;VALUE</text>
<rectangle x1="-1.15" y1="2.95" x2="1.15" y2="4.45" layer="51"/>
<rectangle x1="-1.15" y1="-4.45" x2="1.15" y2="-2.95" layer="51"/>
</package>
<package name="0402-RES">
<description>&lt;b&gt;CAPACITOR&lt;/b&gt;&lt;p&gt;
chip</description>
<wire x1="-0.245" y1="0.224" x2="0.245" y2="0.224" width="0.1524" layer="51"/>
<wire x1="0.245" y1="-0.224" x2="-0.245" y2="-0.224" width="0.1524" layer="51"/>
<wire x1="-1.473" y1="0.483" x2="1.473" y2="0.483" width="0.0508" layer="39"/>
<wire x1="1.473" y1="0.483" x2="1.473" y2="-0.483" width="0.0508" layer="39"/>
<wire x1="1.473" y1="-0.483" x2="-1.473" y2="-0.483" width="0.0508" layer="39"/>
<wire x1="-1.473" y1="-0.483" x2="-1.473" y2="0.483" width="0.0508" layer="39"/>
<smd name="1" x="-0.65" y="0" dx="0.7" dy="0.9" layer="1"/>
<smd name="2" x="0.65" y="0" dx="0.7" dy="0.9" layer="1"/>
<text x="-0.889" y="0.6985" size="1.016" layer="25">&gt;NAME</text>
<text x="-1.0795" y="-1.778" size="1.016" layer="27">&gt;VALUE</text>
<rectangle x1="-0.554" y1="-0.3048" x2="-0.254" y2="0.2951" layer="51"/>
<rectangle x1="0.2588" y1="-0.3048" x2="0.5588" y2="0.2951" layer="51"/>
<rectangle x1="-0.1999" y1="-0.3" x2="0.1999" y2="0.3" layer="35"/>
<rectangle x1="-0.2032" y1="-0.3556" x2="0.2032" y2="0.3556" layer="21"/>
</package>
<package name="8X8-IND">
<smd name="1" x="0" y="3.2" dx="2.2" dy="1.6" layer="1"/>
<smd name="2" x="0" y="-3.2" dx="2.2" dy="1.6" layer="1"/>
<wire x1="2" y1="-4" x2="4" y2="-4" width="0.127" layer="21"/>
<wire x1="4" y1="-4" x2="4" y2="4" width="0.127" layer="21"/>
<wire x1="4" y1="4" x2="2" y2="4" width="0.127" layer="21"/>
<wire x1="-2" y1="4" x2="-4" y2="4" width="0.127" layer="21"/>
<wire x1="-4" y1="4" x2="-4" y2="-4" width="0.127" layer="21"/>
<wire x1="-4" y1="-4" x2="-2" y2="-4" width="0.127" layer="21"/>
<text x="-5" y="5" size="1.27" layer="25">&gt;NAME</text>
<text x="-5" y="-6" size="1.27" layer="27">&gt;VALUE</text>
<rectangle x1="-3.81" y1="-3.81" x2="3.81" y2="3.81" layer="39"/>
</package>
<package name="744029100-IND">
<smd name="1" x="0" y="1.1" dx="3.2" dy="1" layer="1"/>
<smd name="2" x="0" y="-1.1" dx="3.2" dy="1" layer="1"/>
<wire x1="-2" y1="2" x2="-2" y2="-2" width="0.127" layer="21"/>
<wire x1="-2" y1="-2" x2="2" y2="-2" width="0.127" layer="21"/>
<wire x1="2" y1="-2" x2="2" y2="2" width="0.127" layer="21"/>
<wire x1="2" y1="2" x2="-2" y2="2" width="0.127" layer="21"/>
<text x="-3" y="2.3" size="1.27" layer="25">&gt;NAME</text>
<text x="-3" y="-3.6" size="1.27" layer="27">&gt;VALUE</text>
</package>
<package name="7447709470-IND">
<smd name="1" x="0" y="4.95" dx="5.4" dy="2.9" layer="1"/>
<smd name="2" x="0" y="-4.95" dx="5.4" dy="2.9" layer="1"/>
<wire x1="-3" y1="6" x2="-6" y2="6" width="0.127" layer="21"/>
<wire x1="-6" y1="6" x2="-6" y2="-6" width="0.127" layer="21"/>
<wire x1="-6" y1="-6" x2="-3" y2="-6" width="0.127" layer="21"/>
<wire x1="3" y1="-6" x2="6" y2="-6" width="0.127" layer="21"/>
<wire x1="6" y1="-6" x2="6" y2="6" width="0.127" layer="21"/>
<wire x1="6" y1="6" x2="3" y2="6" width="0.127" layer="21"/>
<text x="-7" y="8" size="1.27" layer="25">&gt;NAME</text>
<text x="-7" y="-9" size="1.27" layer="27">&gt;VALUE</text>
</package>
<package name="7447789002-IND">
<smd name="1" x="0" y="3" dx="1.7" dy="2" layer="1"/>
<smd name="2" x="0" y="-3" dx="1.7" dy="2" layer="1"/>
<wire x1="2" y1="-4" x2="4" y2="-4" width="0.127" layer="21"/>
<wire x1="4" y1="-4" x2="4" y2="4" width="0.127" layer="21"/>
<wire x1="4" y1="4" x2="2" y2="4" width="0.127" layer="21"/>
<wire x1="-2" y1="4" x2="-4" y2="4" width="0.127" layer="21"/>
<wire x1="-4" y1="4" x2="-4" y2="-4" width="0.127" layer="21"/>
<wire x1="-4" y1="-4" x2="-2" y2="-4" width="0.127" layer="21"/>
<text x="-5" y="5" size="1.27" layer="25">&gt;NAME</text>
<text x="-5" y="-6" size="1.27" layer="27">&gt;VALUE</text>
<rectangle x1="-3.81" y1="-3.81" x2="3.81" y2="3.81" layer="39"/>
</package>
<package name="R2010">
<description>&lt;b&gt;RESISTOR&lt;/b&gt;&lt;p&gt;
chip</description>
<wire x1="-1.662" y1="1.245" x2="1.662" y2="1.245" width="0.1524" layer="51"/>
<wire x1="-1.637" y1="-1.245" x2="1.687" y2="-1.245" width="0.1524" layer="51"/>
<wire x1="-3.473" y1="1.483" x2="3.473" y2="1.483" width="0.0508" layer="39"/>
<wire x1="3.473" y1="1.483" x2="3.473" y2="-1.483" width="0.0508" layer="39"/>
<wire x1="3.473" y1="-1.483" x2="-3.473" y2="-1.483" width="0.0508" layer="39"/>
<wire x1="-3.473" y1="-1.483" x2="-3.473" y2="1.483" width="0.0508" layer="39"/>
<wire x1="-1.027" y1="1.245" x2="1.027" y2="1.245" width="0.1524" layer="21"/>
<wire x1="-1.002" y1="-1.245" x2="1.016" y2="-1.245" width="0.1524" layer="21"/>
<smd name="1" x="-2.2" y="0" dx="1.8" dy="2.7" layer="1"/>
<smd name="2" x="2.2" y="0" dx="1.8" dy="2.7" layer="1"/>
<text x="-2.54" y="1.5875" size="1.016" layer="25">&gt;NAME</text>
<text x="-2.54" y="-3.302" size="1.016" layer="27">&gt;VALUE</text>
<rectangle x1="-2.4892" y1="-1.3208" x2="-1.6393" y2="1.3292" layer="51"/>
<rectangle x1="1.651" y1="-1.3208" x2="2.5009" y2="1.3292" layer="51"/>
</package>
<package name="R2512">
<wire x1="-2.362" y1="1.473" x2="2.387" y2="1.473" width="0.1524" layer="51"/>
<wire x1="-2.362" y1="-1.473" x2="2.387" y2="-1.473" width="0.1524" layer="51"/>
<smd name="1" x="-2.8" y="0" dx="1.8" dy="3.2" layer="1"/>
<smd name="2" x="2.8" y="0" dx="1.8" dy="3.2" layer="1"/>
<text x="-2.54" y="1.905" size="1.016" layer="25">&gt;NAME</text>
<text x="-2.54" y="-3.175" size="1.016" layer="27">&gt;VALUE</text>
<rectangle x1="-3.2004" y1="-1.5494" x2="-2.3505" y2="1.5507" layer="51"/>
<rectangle x1="2.3622" y1="-1.5494" x2="3.2121" y2="1.5507" layer="51"/>
</package>
<package name="TO220ACS">
<description>&lt;B&gt;DIODE&lt;/B&gt;&lt;p&gt;
2-lead molded, vertical</description>
<wire x1="5.08" y1="-1.143" x2="4.953" y2="-4.064" width="0.1524" layer="21"/>
<wire x1="4.699" y1="-4.318" x2="4.953" y2="-4.064" width="0.1524" layer="21"/>
<wire x1="4.699" y1="-4.318" x2="-4.699" y2="-4.318" width="0.1524" layer="21"/>
<wire x1="-4.953" y1="-4.064" x2="-4.699" y2="-4.318" width="0.1524" layer="21"/>
<wire x1="-4.953" y1="-4.064" x2="-5.08" y2="-1.143" width="0.1524" layer="21"/>
<circle x="-4.4958" y="-3.7084" radius="0.254" width="0" layer="21"/>
<pad name="C" x="-2.54" y="-2.54" drill="1.016" shape="long" rot="R90"/>
<pad name="A" x="2.54" y="-2.54" drill="1.016" shape="long" rot="R90"/>
<text x="-5.08" y="-6.0452" size="1.016" layer="25" ratio="10">&gt;NAME</text>
<text x="-5.08" y="-7.62" size="1.016" layer="27" ratio="10">&gt;VALUE</text>
<rectangle x1="-5.334" y1="-0.762" x2="5.334" y2="0" layer="21"/>
<rectangle x1="-5.334" y1="-1.27" x2="-3.429" y2="-0.762" layer="21"/>
<rectangle x1="-3.429" y1="-1.27" x2="-1.651" y2="-0.762" layer="51"/>
<rectangle x1="3.429" y1="-1.27" x2="5.334" y2="-0.762" layer="21"/>
<rectangle x1="1.651" y1="-1.27" x2="3.429" y2="-0.762" layer="51"/>
<rectangle x1="-1.651" y1="-1.27" x2="1.651" y2="-0.762" layer="21"/>
</package>
<package name="RES_EFOBM">
<smd name="1" x="-1.35" y="0" dx="3.9" dy="0.8" layer="1" rot="R90"/>
<smd name="2" x="0" y="0" dx="3.9" dy="0.8" layer="1" rot="R270"/>
<smd name="3" x="1.35" y="0" dx="3.9" dy="0.8" layer="1" rot="R270"/>
</package>
<package name="TACT-SWITCH-KMR6">
<smd name="P$1" x="-2.05" y="0.8" dx="0.9" dy="1" layer="1" rot="R180"/>
<smd name="P$2" x="2.05" y="0.8" dx="0.9" dy="1" layer="1" rot="R180"/>
<smd name="P$3" x="-2.05" y="-0.8" dx="0.9" dy="1" layer="1" rot="R180"/>
<smd name="P$4" x="2.05" y="-0.8" dx="0.9" dy="1" layer="1" rot="R180"/>
<wire x1="-1.4" y1="0.8" x2="0" y2="0.8" width="0.127" layer="51"/>
<wire x1="0" y1="0.8" x2="1.4" y2="0.8" width="0.127" layer="51"/>
<wire x1="-1.4" y1="-0.8" x2="0" y2="-0.8" width="0.127" layer="51"/>
<wire x1="0" y1="-0.8" x2="1.4" y2="-0.8" width="0.127" layer="51"/>
<wire x1="0" y1="0.8" x2="0" y2="0.6" width="0.127" layer="51"/>
<wire x1="0" y1="0.6" x2="0.4" y2="-0.4" width="0.127" layer="51"/>
<wire x1="0" y1="-0.8" x2="0" y2="-0.5" width="0.127" layer="51"/>
<wire x1="-2.1" y1="0.2" x2="-2.1" y2="-0.2" width="0.127" layer="51"/>
<wire x1="2.1" y1="-0.2" x2="2.1" y2="0.2" width="0.127" layer="51"/>
<wire x1="2.1" y1="1.4" x2="2.1" y2="1.5" width="0.127" layer="51"/>
<wire x1="2.1" y1="1.5" x2="1" y2="1.5" width="0.127" layer="51"/>
<wire x1="1.032" y1="1.5" x2="-2.1" y2="1.5" width="0.127" layer="51"/>
<wire x1="-2.1" y1="1.5" x2="-2.1" y2="1.4" width="0.127" layer="51"/>
<wire x1="-2.1" y1="-1.4" x2="-2.1" y2="-1.5" width="0.127" layer="51"/>
<wire x1="-2.1" y1="-1.5" x2="2.1" y2="-1.5" width="0.127" layer="51"/>
<wire x1="2.1" y1="-1.5" x2="2.1" y2="-1.4" width="0.127" layer="51"/>
</package>
<package name="RES_PRQC">
<smd name="1" x="-0.95" y="0" dx="1.5" dy="0.6" layer="1" rot="R90"/>
<smd name="2" x="0" y="0" dx="1.5" dy="0.4" layer="1" rot="R270"/>
<smd name="3" x="0.95" y="0" dx="1.5" dy="0.6" layer="1" rot="R270"/>
<wire x1="-1.6" y1="0.65" x2="1.6" y2="0.65" width="0.127" layer="51"/>
<wire x1="1.6" y1="0.65" x2="1.6" y2="-0.65" width="0.127" layer="51"/>
<wire x1="1.6" y1="-0.65" x2="-1.6" y2="-0.65" width="0.127" layer="51"/>
<wire x1="-1.6" y1="-0.65" x2="-1.6" y2="0.65" width="0.127" layer="51"/>
</package>
<package name="SOD123">
<description>&lt;b&gt;SMALL OUTLINE DIODE&lt;/b&gt;</description>
<wire x1="-2.973" y1="0.983" x2="2.973" y2="0.983" width="0.0508" layer="39"/>
<wire x1="2.973" y1="-0.983" x2="-2.973" y2="-0.983" width="0.0508" layer="39"/>
<wire x1="-2.973" y1="-0.983" x2="-2.973" y2="0.983" width="0.0508" layer="39"/>
<wire x1="2.973" y1="0.983" x2="2.973" y2="-0.983" width="0.0508" layer="39"/>
<wire x1="-1.321" y1="0.787" x2="1.321" y2="0.787" width="0.1016" layer="51"/>
<wire x1="-1.321" y1="-0.787" x2="1.321" y2="-0.787" width="0.1016" layer="51"/>
<wire x1="-1.321" y1="-0.787" x2="-1.321" y2="0.787" width="0.1016" layer="51"/>
<wire x1="1.321" y1="-0.787" x2="1.321" y2="0.787" width="0.1016" layer="51"/>
<wire x1="-1" y1="0" x2="0" y2="0.5" width="0.2032" layer="51"/>
<wire x1="0" y1="0.5" x2="0" y2="-0.5" width="0.2032" layer="51"/>
<wire x1="0" y1="-0.5" x2="-1" y2="0" width="0.2032" layer="51"/>
<wire x1="-1" y1="0.5" x2="-1" y2="0" width="0.2032" layer="51"/>
<wire x1="-1" y1="0" x2="-1" y2="-0.5" width="0.2032" layer="51"/>
<smd name="CATHODE" x="-1.7" y="0" dx="1.6" dy="0.8" layer="1"/>
<smd name="ANODE" x="1.7" y="0" dx="1.6" dy="0.8" layer="1"/>
<text x="-1.905" y="1.905" size="1.27" layer="25">&gt;NAME</text>
<text x="-1.905" y="-3.175" size="1.27" layer="27">&gt;VALUE</text>
<rectangle x1="-1.9558" y1="-0.3048" x2="-1.3716" y2="0.3048" layer="51" rot="R180"/>
<rectangle x1="1.3716" y1="-0.3048" x2="1.9558" y2="0.3048" layer="51" rot="R180"/>
<rectangle x1="-0.4001" y1="-0.7" x2="0.4001" y2="0.7" layer="35"/>
<wire x1="-2.667" y1="0.889" x2="-2.667" y2="-0.889" width="0.127" layer="21"/>
<wire x1="-2.921" y1="0.889" x2="-2.921" y2="-0.889" width="0.127" layer="21"/>
<wire x1="-2.921" y1="-0.889" x2="2.794" y2="-0.889" width="0.127" layer="21"/>
<wire x1="2.794" y1="-0.889" x2="2.794" y2="0.889" width="0.127" layer="21"/>
<wire x1="2.794" y1="0.889" x2="-2.921" y2="0.889" width="0.127" layer="21"/>
</package>
<package name="0805-DIODE">
<smd name="1" x="-0.85" y="0" dx="1.1" dy="1" layer="1"/>
<smd name="2" x="0.85" y="0" dx="1.1" dy="1" layer="1"/>
<text x="-0.889" y="1.397" size="0.3048" layer="25">&gt;NAME</text>
<text x="-1.016" y="-1.143" size="0.3048" layer="27" ratio="10">&gt;VALUE</text>
<rectangle x1="-0.1999" y1="-0.3" x2="0.1999" y2="0.3" layer="35"/>
<wire x1="-0.1778" y1="0.4318" x2="0.1778" y2="0" width="0.127" layer="21"/>
<wire x1="0.1778" y1="0" x2="-0.1778" y2="-0.4318" width="0.127" layer="21"/>
<wire x1="-0.1778" y1="0.4318" x2="-0.1778" y2="-0.4318" width="0.127" layer="21"/>
</package>
<package name="SOD-123HE">
<smd name="P$1" x="0.8" y="0" dx="2.4" dy="1.4" layer="1"/>
<smd name="P$2" x="-1.55" y="0" dx="0.9" dy="1.4" layer="1"/>
<wire x1="-1.4" y1="-0.9" x2="0" y2="-0.9" width="0.127" layer="51"/>
<wire x1="0" y1="-0.9" x2="0.9" y2="-0.9" width="0.127" layer="51"/>
<wire x1="0.9" y1="-0.9" x2="1.4" y2="-0.9" width="0.127" layer="51"/>
<wire x1="1.4" y1="-0.9" x2="1.4" y2="0.9" width="0.127" layer="51"/>
<wire x1="1.4" y1="0.9" x2="0.9" y2="0.9" width="0.127" layer="51"/>
<wire x1="0.9" y1="0.9" x2="0" y2="0.9" width="0.127" layer="51"/>
<wire x1="0" y1="0.9" x2="-1.4" y2="0.9" width="0.127" layer="51"/>
<wire x1="-1.4" y1="0.9" x2="-1.4" y2="-0.9" width="0.127" layer="51"/>
<wire x1="0.9" y1="0.9" x2="0.9" y2="0" width="0.127" layer="51"/>
<wire x1="0.9" y1="0" x2="0.9" y2="-0.9" width="0.127" layer="51"/>
<wire x1="0.9" y1="0" x2="0" y2="0.9" width="0.127" layer="51"/>
<wire x1="0" y1="0.9" x2="0" y2="-0.9" width="0.127" layer="51"/>
<wire x1="0" y1="-0.9" x2="0.9" y2="0" width="0.127" layer="51"/>
<wire x1="1.4" y1="0.9" x2="0.5" y2="0.9" width="0.127" layer="21"/>
<wire x1="1.4" y1="-0.9" x2="0.5" y2="-0.9" width="0.127" layer="21"/>
<text x="0" y="1.8" size="1.27" layer="25" font="vector" align="center">&gt;NAME</text>
</package>
<package name="WSL2726">
<description>&lt;b&gt;SMD SHUNT RESISTOR&lt;/b&gt;</description>
<wire x1="-4.8768" y1="7.9756" x2="4.8768" y2="7.9756" width="0.2032" layer="51"/>
<wire x1="4.8768" y1="7.9756" x2="4.8768" y2="-0.3556" width="0.2032" layer="51"/>
<wire x1="4.8768" y1="-0.3556" x2="-4.8768" y2="-0.3556" width="0.2032" layer="51"/>
<wire x1="-4.8768" y1="-0.3556" x2="-4.8768" y2="7.9756" width="0.2032" layer="51"/>
<smd name="A" x="3.302" y="2.794" dx="2.4384" dy="5.588" layer="1"/>
<smd name="SA" x="3.302" y="6.9215" dx="2.4384" dy="0.889" layer="1"/>
<smd name="B" x="-3.302" y="2.794" dx="2.4384" dy="5.588" layer="1"/>
<smd name="SB" x="-3.302" y="6.9215" dx="2.4384" dy="0.889" layer="1"/>
<text x="-0.3556" y="-0.0508" size="1.27" layer="25" rot="R90">&gt;NAME</text>
<text x="1.5748" y="-0.0508" size="1.27" layer="27" rot="R90">&gt;VALUE</text>
</package>
<package name="R2512_SHUNT">
<wire x1="-2.362" y1="1.473" x2="2.387" y2="1.473" width="0.1524" layer="51"/>
<wire x1="-2.362" y1="-1.473" x2="2.387" y2="-1.473" width="0.1524" layer="51"/>
<smd name="A" x="-2.8" y="0" dx="1.8" dy="3.2" layer="1" thermals="no"/>
<smd name="B" x="2.8" y="0" dx="1.8" dy="3.2" layer="1" thermals="no"/>
<text x="-2.54" y="1.905" size="1.016" layer="25">&gt;NAME</text>
<text x="-2.54" y="-3.175" size="1.016" layer="27">&gt;VALUE</text>
<rectangle x1="-3.2004" y1="-1.5494" x2="-2.3505" y2="1.5507" layer="51"/>
<rectangle x1="2.3622" y1="-1.5494" x2="3.2121" y2="1.5507" layer="51"/>
<smd name="SA" x="-1.414" y="1.3" dx="0.5" dy="0.5" layer="1" rot="R180"/>
<smd name="SB" x="1.386" y="1.3" dx="0.5" dy="0.5" layer="1"/>
<wire x1="-1.4" y1="1.3" x2="-2.4" y2="1.3" width="0.2032" layer="1"/>
<wire x1="1.4" y1="1.3" x2="2.2" y2="1.3" width="0.2032" layer="1"/>
</package>
<package name="SMA-403D">
<smd name="P$1" x="-2" y="0" dx="2" dy="2" layer="1" rot="R180"/>
<smd name="P$2" x="2" y="0" dx="2" dy="2" layer="1" rot="R180"/>
<wire x1="-2.2" y1="1.2" x2="-2.2" y2="1.6" width="0.127" layer="21"/>
<wire x1="-2.2" y1="1.6" x2="-1.2" y2="1.6" width="0.127" layer="21"/>
<wire x1="-2.2" y1="-1.2" x2="-2.2" y2="-1.6" width="0.127" layer="21"/>
<wire x1="-2.2" y1="-1.6" x2="-1.2" y2="-1.6" width="0.127" layer="21"/>
<wire x1="1.2" y1="-1.6" x2="2" y2="-1.6" width="0.127" layer="21"/>
<wire x1="1.2" y1="1.6" x2="2" y2="1.6" width="0.127" layer="21"/>
<text x="0" y="2.4" size="1.27" layer="25" font="vector" align="center">&gt;NAME</text>
</package>
<package name="2220-C">
<smd name="P$1" x="-2.6" y="0" dx="1.2" dy="5" layer="1"/>
<smd name="P$2" x="2.6" y="0" dx="1.2" dy="5" layer="1"/>
<text x="-1.5" y="3" size="0.6096" layer="125">&gt;NAME</text>
<text x="-1.5" y="-3.5" size="0.6096" layer="127">&gt;VALUE</text>
</package>
<package name="SMA-DO-214AC">
<smd name="P$1" x="-2.15" y="0" dx="2" dy="2" layer="1" rot="R180"/>
<smd name="P$2" x="2.15" y="0" dx="2" dy="2" layer="1" rot="R180"/>
<wire x1="-2.2" y1="1.2" x2="-2.2" y2="1.6" width="0.127" layer="21"/>
<wire x1="-2.2" y1="1.6" x2="-1.2" y2="1.6" width="0.127" layer="21"/>
<wire x1="-2.2" y1="-1.2" x2="-2.2" y2="-1.6" width="0.127" layer="21"/>
<wire x1="-2.2" y1="-1.6" x2="-1.2" y2="-1.6" width="0.127" layer="21"/>
<wire x1="1.2" y1="-1.6" x2="2" y2="-1.6" width="0.127" layer="21"/>
<wire x1="1.2" y1="1.6" x2="2" y2="1.6" width="0.127" layer="21"/>
</package>
<package name="DO41Z10">
<description>&lt;B&gt;DIODE&lt;/B&gt;&lt;p&gt;
diameter 2.54 mm, horizontal, grid 10.16 mm</description>
<wire x1="2.032" y1="-1.27" x2="-2.032" y2="-1.27" width="0.1524" layer="21"/>
<wire x1="2.032" y1="-1.27" x2="2.032" y2="1.27" width="0.1524" layer="21"/>
<wire x1="-2.032" y1="1.27" x2="2.032" y2="1.27" width="0.1524" layer="21"/>
<wire x1="-2.032" y1="1.27" x2="-2.032" y2="-1.27" width="0.1524" layer="21"/>
<wire x1="5.08" y1="0" x2="3.937" y2="0" width="0.762" layer="51"/>
<wire x1="-5.08" y1="0" x2="-4.064" y2="0" width="0.762" layer="51"/>
<wire x1="-0.635" y1="0" x2="0" y2="0" width="0.1524" layer="21"/>
<wire x1="1.016" y1="0.635" x2="1.016" y2="-0.635" width="0.1524" layer="21"/>
<wire x1="1.016" y1="-0.635" x2="0" y2="0" width="0.1524" layer="21"/>
<wire x1="0" y1="0" x2="1.524" y2="0" width="0.1524" layer="21"/>
<wire x1="0" y1="0" x2="1.016" y2="0.635" width="0.1524" layer="21"/>
<wire x1="0" y1="0" x2="0" y2="-0.635" width="0.1524" layer="21"/>
<wire x1="0.254" y1="0.635" x2="0" y2="0.635" width="0.1524" layer="21"/>
<wire x1="0" y1="0.635" x2="0" y2="0" width="0.1524" layer="21"/>
<pad name="C" x="-5.08" y="0" drill="1.1176"/>
<pad name="A" x="5.08" y="0" drill="1.1176"/>
<text x="-1.905" y="1.651" size="1.27" layer="25" ratio="10">&gt;NAME</text>
<text x="-1.905" y="-2.794" size="1.27" layer="27" ratio="10">&gt;VALUE</text>
<rectangle x1="-1.651" y1="-1.27" x2="-1.143" y2="1.27" layer="21"/>
<rectangle x1="2.032" y1="-0.381" x2="3.937" y2="0.381" layer="21"/>
<rectangle x1="-3.937" y1="-0.381" x2="-2.032" y2="0.381" layer="21"/>
</package>
<package name="TACT-SWITCH-SIDE">
<smd name="P$1" x="-1.8" y="0.725" dx="1.4" dy="1.05" layer="1" rot="R180"/>
<smd name="P$2" x="1.8" y="0.725" dx="1.4" dy="1.05" layer="1" rot="R180"/>
<smd name="P$3" x="-1.8" y="-0.725" dx="1.4" dy="1.05" layer="1" rot="R180"/>
<smd name="P$4" x="1.8" y="-0.725" dx="1.4" dy="1.05" layer="1" rot="R180"/>
<wire x1="-0.9" y1="0.8" x2="0" y2="0.8" width="0.127" layer="51"/>
<wire x1="0" y1="0.8" x2="0.9" y2="0.8" width="0.127" layer="51"/>
<wire x1="-0.9" y1="-0.8" x2="0" y2="-0.8" width="0.127" layer="51"/>
<wire x1="0" y1="-0.8" x2="0.9" y2="-0.8" width="0.127" layer="51"/>
<wire x1="0" y1="0.8" x2="0" y2="0.6" width="0.127" layer="51"/>
<wire x1="0" y1="0.6" x2="0.4" y2="-0.4" width="0.127" layer="51"/>
<wire x1="0" y1="-0.8" x2="0" y2="-0.5" width="0.127" layer="51"/>
<wire x1="-1.75" y1="-1.45" x2="1.75" y2="-1.45" width="0.127" layer="21"/>
<wire x1="-1.75" y1="1.6" x2="-1" y2="1.6" width="0.127" layer="21"/>
<wire x1="-1" y1="1.6" x2="0" y2="1.6" width="0.127" layer="21"/>
<wire x1="0" y1="1.6" x2="1" y2="1.6" width="0.127" layer="21"/>
<wire x1="1" y1="1.6" x2="1.75" y2="1.6" width="0.127" layer="21"/>
<wire x1="-1" y1="1.6" x2="-1" y2="2.3" width="0.127" layer="21"/>
<wire x1="-1" y1="2.3" x2="1" y2="2.3" width="0.127" layer="21"/>
<wire x1="1" y1="2.3" x2="1" y2="1.6" width="0.127" layer="21"/>
</package>
<package name="2-SMD-3.2X1.5MM">
<smd name="P$1" x="-1.25" y="0" dx="1.9" dy="1.1" layer="1" rot="R90"/>
<smd name="P$2" x="1.25" y="0" dx="1.9" dy="1.1" layer="1" rot="R90"/>
<wire x1="-0.6" y1="0.9" x2="0.6" y2="0.9" width="0.127" layer="51"/>
<wire x1="-0.6" y1="-0.9" x2="0.6" y2="-0.9" width="0.127" layer="51"/>
<text x="-2.54" y="1.27" size="1.27" layer="25">&gt;NAME</text>
<text x="-2.54" y="-2.54" size="1.27" layer="27">&gt;VALUE</text>
</package>
<package name="2-SMD-4.9X1.8MM">
<smd name="P$1" x="-2.1" y="0" dx="2.2" dy="1.3" layer="1" rot="R90"/>
<smd name="P$2" x="2.1" y="0" dx="2.2" dy="1.3" layer="1" rot="R90"/>
<wire x1="1.3" y1="1.1" x2="-1.3" y2="1.1" width="0.127" layer="21"/>
<wire x1="-1.3" y1="-1.1" x2="1.3" y2="-1.1" width="0.127" layer="21"/>
<text x="-2.54" y="1.27" size="1.27" layer="25">&gt;NAME</text>
<text x="-2.54" y="-2.54" size="1.27" layer="27">&gt;VALUE</text>
</package>
<package name="NRS5020">
<smd name="P$1" x="-1.8" y="0" dx="1.5" dy="4" layer="1"/>
<smd name="P$2" x="1.8" y="0" dx="1.5" dy="4" layer="1"/>
<wire x1="-2.5" y1="2.5" x2="2.5" y2="2.5" width="0.127" layer="51"/>
<wire x1="2.5" y1="2.5" x2="2.5" y2="-2.5" width="0.127" layer="51"/>
<wire x1="2.5" y1="-2.5" x2="-2.5" y2="-2.5" width="0.127" layer="51"/>
<wire x1="-2.5" y1="-2.5" x2="-2.5" y2="2.5" width="0.127" layer="51"/>
</package>
<package name="4-SMD-3.2X2.5">
<smd name="P$1" x="-1.1" y="-0.8" dx="1.4" dy="1.2" layer="1"/>
<smd name="P$2" x="1.1" y="-0.8" dx="1.4" dy="1.2" layer="1"/>
<smd name="P$3" x="1.1" y="0.8" dx="1.4" dy="1.2" layer="1"/>
<smd name="P$4" x="-1.1" y="0.8" dx="1.4" dy="1.2" layer="1"/>
<rectangle x1="-1.6" y1="-1.25" x2="1.6" y2="1.25" layer="51"/>
<circle x="-2" y="1.6" radius="0.14141875" width="0.127" layer="21"/>
</package>
<package name="SMD-ELEC-CAP">
<wire x1="-3.25" y1="-3.3" x2="-3.25" y2="2.3" width="0.127" layer="51"/>
<wire x1="-3.25" y1="2.3" x2="-2.25" y2="3.3" width="0.127" layer="51"/>
<wire x1="-2.25" y1="3.3" x2="2.25" y2="3.3" width="0.127" layer="51"/>
<wire x1="2.25" y1="3.3" x2="3.25" y2="2.3" width="0.127" layer="51"/>
<wire x1="3.25" y1="2.3" x2="3.25" y2="-3.3" width="0.127" layer="51"/>
<wire x1="3.25" y1="-3.3" x2="-3.25" y2="-3.3" width="0.127" layer="51"/>
<circle x="0" y="0" radius="3.1" width="0.08" layer="51"/>
<smd name="A" x="0" y="2.65" dx="3.6" dy="1.8" layer="1" rot="R90" thermals="no"/>
<smd name="C" x="0" y="-2.65" dx="3.6" dy="1.8" layer="1" rot="R90" thermals="no"/>
<rectangle x1="-3.25" y1="-3.3" x2="3.25" y2="-2.3" layer="51"/>
<text x="-3.25" y="5.7" size="1.27" layer="25">&gt;NAME</text>
<text x="-3.25" y="-6.3" size="1.27" layer="27">&gt;VALUE</text>
<wire x1="-3.2" y1="2.35" x2="-2.3" y2="3.25" width="0.127" layer="21"/>
<wire x1="3.2" y1="2.35" x2="2.3" y2="3.25" width="0.127" layer="21"/>
</package>
<package name="0402">
<description>&lt;b&gt;CAPACITOR&lt;/b&gt;&lt;p&gt;
chip</description>
<wire x1="-0.245" y1="0.224" x2="0.245" y2="0.224" width="0.1524" layer="51"/>
<wire x1="0.245" y1="-0.224" x2="-0.245" y2="-0.224" width="0.1524" layer="51"/>
<smd name="1" x="-0.525" y="0" dx="0.575" dy="0.7" layer="1"/>
<smd name="2" x="0.525" y="0" dx="0.575" dy="0.7" layer="1"/>
<text x="-0.889" y="0.6985" size="1.016" layer="25">&gt;NAME</text>
<text x="-1.0795" y="-1.778" size="1.016" layer="27">&gt;VALUE</text>
<rectangle x1="-0.554" y1="-0.3048" x2="-0.254" y2="0.2951" layer="51"/>
<rectangle x1="0.2588" y1="-0.3048" x2="0.5588" y2="0.2951" layer="51"/>
</package>
</packages>
<symbols>
<symbol name="CAP">
<wire x1="0" y1="2.54" x2="0" y2="2.032" width="0.1524" layer="94"/>
<wire x1="0" y1="0" x2="0" y2="0.508" width="0.1524" layer="94"/>
<text x="1.524" y="2.921" size="1.778" layer="95">&gt;NAME</text>
<text x="1.524" y="-2.159" size="1.778" layer="96">&gt;VALUE</text>
<rectangle x1="-2.032" y1="0.508" x2="2.032" y2="1.016" layer="94"/>
<rectangle x1="-2.032" y1="1.524" x2="2.032" y2="2.032" layer="94"/>
<pin name="1" x="0" y="5.08" visible="off" length="short" direction="pas" swaplevel="1" rot="R270"/>
<pin name="2" x="0" y="-2.54" visible="off" length="short" direction="pas" swaplevel="1" rot="R90"/>
<text x="1.524" y="-4.064" size="1.27" layer="97">&gt;PACKAGE</text>
<text x="1.524" y="-5.842" size="1.27" layer="97">&gt;VOLTAGE</text>
<text x="1.524" y="-7.62" size="1.27" layer="97">&gt;TYPE</text>
</symbol>
<symbol name="INDUCTOR">
<wire x1="0" y1="5.08" x2="1.27" y2="3.81" width="0.254" layer="94" curve="-90" cap="flat"/>
<wire x1="0" y1="2.54" x2="1.27" y2="3.81" width="0.254" layer="94" curve="90" cap="flat"/>
<wire x1="0" y1="2.54" x2="1.27" y2="1.27" width="0.254" layer="94" curve="-90" cap="flat"/>
<wire x1="0" y1="0" x2="1.27" y2="1.27" width="0.254" layer="94" curve="90" cap="flat"/>
<wire x1="0" y1="0" x2="1.27" y2="-1.27" width="0.254" layer="94" curve="-90" cap="flat"/>
<wire x1="0" y1="-2.54" x2="1.27" y2="-1.27" width="0.254" layer="94" curve="90" cap="flat"/>
<wire x1="0" y1="-2.54" x2="1.27" y2="-3.81" width="0.254" layer="94" curve="-90" cap="flat"/>
<wire x1="0" y1="-5.08" x2="1.27" y2="-3.81" width="0.254" layer="94" curve="90" cap="flat"/>
<text x="-1.27" y="-5.08" size="1.778" layer="95" rot="R90">&gt;NAME</text>
<text x="3.81" y="-5.08" size="1.778" layer="96" rot="R90">&gt;VALUE</text>
<pin name="2" x="0" y="-7.62" visible="off" length="short" direction="pas" swaplevel="1" rot="R90"/>
<pin name="1" x="0" y="7.62" visible="off" length="short" direction="pas" swaplevel="1" rot="R270"/>
<text x="6.35" y="-5.08" size="1.27" layer="97" rot="R90">&gt;PACKAGE</text>
</symbol>
<symbol name="RESISTOR">
<wire x1="-2.54" y1="0" x2="-2.159" y2="1.016" width="0.1524" layer="94"/>
<wire x1="-2.159" y1="1.016" x2="-1.524" y2="-1.016" width="0.1524" layer="94"/>
<wire x1="-1.524" y1="-1.016" x2="-0.889" y2="1.016" width="0.1524" layer="94"/>
<wire x1="-0.889" y1="1.016" x2="-0.254" y2="-1.016" width="0.1524" layer="94"/>
<wire x1="-0.254" y1="-1.016" x2="0.381" y2="1.016" width="0.1524" layer="94"/>
<wire x1="0.381" y1="1.016" x2="1.016" y2="-1.016" width="0.1524" layer="94"/>
<wire x1="1.016" y1="-1.016" x2="1.651" y2="1.016" width="0.1524" layer="94"/>
<wire x1="1.651" y1="1.016" x2="2.286" y2="-1.016" width="0.1524" layer="94"/>
<wire x1="2.286" y1="-1.016" x2="2.54" y2="0" width="0.1524" layer="94"/>
<text x="-3.81" y="1.4986" size="1.778" layer="95">&gt;NAME</text>
<text x="-3.81" y="-3.302" size="1.778" layer="96">&gt;VALUE</text>
<pin name="2" x="5.08" y="0" visible="off" length="short" direction="pas" swaplevel="1" rot="R180"/>
<pin name="1" x="-5.08" y="0" visible="off" length="short" direction="pas" swaplevel="1"/>
<text x="-3.81" y="-6.858" size="1.27" layer="97">&gt;PRECISION</text>
<text x="-3.81" y="-5.08" size="1.27" layer="97">&gt;PACKAGE</text>
</symbol>
<symbol name="CERAMIC_RESONATOR">
<wire x1="-5.08" y1="2.54" x2="5.08" y2="2.54" width="0.254" layer="94"/>
<wire x1="5.08" y1="2.54" x2="5.08" y2="0" width="0.254" layer="94"/>
<wire x1="5.08" y1="0" x2="5.08" y2="-5.08" width="0.254" layer="94"/>
<wire x1="5.08" y1="-5.08" x2="0" y2="-5.08" width="0.254" layer="94"/>
<wire x1="0" y1="-5.08" x2="-5.08" y2="-5.08" width="0.254" layer="94"/>
<wire x1="-5.08" y1="-5.08" x2="-5.08" y2="0" width="0.254" layer="94"/>
<wire x1="-5.08" y1="0" x2="-5.08" y2="2.54" width="0.254" layer="94"/>
<wire x1="-5.08" y1="0" x2="-3.81" y2="0" width="0.1524" layer="94"/>
<wire x1="-3.81" y1="0" x2="-1.27" y2="0" width="0.1524" layer="94"/>
<wire x1="-1.27" y1="0" x2="-1.27" y2="1.27" width="0.1524" layer="94"/>
<wire x1="-1.27" y1="0" x2="-1.27" y2="-1.27" width="0.1524" layer="94"/>
<wire x1="-0.508" y1="1.27" x2="-0.508" y2="-1.27" width="0.1524" layer="94"/>
<wire x1="-0.508" y1="-1.27" x2="0.508" y2="-1.27" width="0.1524" layer="94"/>
<wire x1="0.508" y1="-1.27" x2="0.508" y2="1.27" width="0.1524" layer="94"/>
<wire x1="0.508" y1="1.27" x2="-0.508" y2="1.27" width="0.1524" layer="94"/>
<wire x1="1.27" y1="1.27" x2="1.27" y2="0" width="0.1524" layer="94"/>
<wire x1="1.27" y1="0" x2="1.27" y2="-1.27" width="0.1524" layer="94"/>
<wire x1="1.27" y1="0" x2="3.81" y2="0" width="0.1524" layer="94"/>
<wire x1="3.81" y1="0" x2="5.08" y2="0" width="0.1524" layer="94"/>
<wire x1="0" y1="-5.08" x2="0" y2="-3.302" width="0.1524" layer="94"/>
<wire x1="0" y1="-3.302" x2="-1.778" y2="-3.302" width="0.1524" layer="94"/>
<wire x1="0" y1="-3.302" x2="1.778" y2="-3.302" width="0.1524" layer="94"/>
<wire x1="1.778" y1="-2.286" x2="1.778" y2="-4.318" width="0.1524" layer="94"/>
<wire x1="2.54" y1="-2.286" x2="2.54" y2="-3.302" width="0.1524" layer="94"/>
<wire x1="2.54" y1="-3.302" x2="2.54" y2="-4.318" width="0.1524" layer="94"/>
<wire x1="2.54" y1="-3.302" x2="3.81" y2="-3.302" width="0.1524" layer="94"/>
<wire x1="3.81" y1="-3.302" x2="3.81" y2="0" width="0.1524" layer="94"/>
<wire x1="-1.778" y1="-2.286" x2="-1.778" y2="-4.318" width="0.1524" layer="94"/>
<wire x1="-2.54" y1="-2.286" x2="-2.54" y2="-3.302" width="0.1524" layer="94"/>
<wire x1="-2.54" y1="-3.302" x2="-2.54" y2="-4.318" width="0.1524" layer="94"/>
<wire x1="-2.54" y1="-3.302" x2="-3.81" y2="-3.302" width="0.1524" layer="94"/>
<wire x1="-3.81" y1="-3.302" x2="-3.81" y2="0" width="0.1524" layer="94"/>
<circle x="-3.81" y="0" radius="0.254" width="0" layer="94"/>
<circle x="3.81" y="0" radius="0.254" width="0" layer="94"/>
<circle x="0" y="-3.302" radius="0.254" width="0" layer="94"/>
<text x="-5.08" y="3.81" size="1.778" layer="95">&gt;NAME</text>
<text x="2.54" y="-7.62" size="1.778" layer="96">&gt;VALUE</text>
<pin name="1" x="-7.62" y="0" visible="pad" length="short" direction="pas"/>
<pin name="2" x="0" y="-7.62" visible="pad" length="short" direction="pas" rot="R90"/>
<pin name="3" x="7.62" y="0" visible="pad" length="short" direction="pas" rot="R180"/>
</symbol>
<symbol name="TS2">
<wire x1="0" y1="1.905" x2="0" y2="2.54" width="0.254" layer="94"/>
<wire x1="-4.445" y1="1.905" x2="-3.175" y2="1.905" width="0.254" layer="94"/>
<wire x1="-4.445" y1="-1.905" x2="-3.175" y2="-1.905" width="0.254" layer="94"/>
<wire x1="-4.445" y1="1.905" x2="-4.445" y2="0" width="0.254" layer="94"/>
<wire x1="-4.445" y1="0" x2="-4.445" y2="-1.905" width="0.254" layer="94"/>
<wire x1="-2.54" y1="0" x2="-1.905" y2="0" width="0.1524" layer="94"/>
<wire x1="-1.27" y1="0" x2="-0.635" y2="0" width="0.1524" layer="94"/>
<wire x1="-4.445" y1="0" x2="-3.175" y2="0" width="0.1524" layer="94"/>
<wire x1="2.54" y1="2.54" x2="0" y2="2.54" width="0.1524" layer="94"/>
<wire x1="2.54" y1="-2.54" x2="0" y2="-2.54" width="0.1524" layer="94"/>
<wire x1="0" y1="-2.54" x2="-1.27" y2="1.905" width="0.254" layer="94"/>
<circle x="0" y="-2.54" radius="0.127" width="0.4064" layer="94"/>
<circle x="0" y="2.54" radius="0.127" width="0.4064" layer="94"/>
<text x="-6.35" y="-2.54" size="1.778" layer="95" rot="R90">&gt;NAME</text>
<text x="-3.81" y="3.175" size="1.778" layer="96" rot="R90">&gt;VALUE</text>
<pin name="P" x="0" y="-5.08" visible="pad" length="short" direction="pas" swaplevel="2" rot="R90"/>
<pin name="S" x="0" y="5.08" visible="pad" length="short" direction="pas" swaplevel="1" rot="R270"/>
<pin name="S1" x="2.54" y="5.08" visible="pad" length="short" direction="pas" swaplevel="1" rot="R270"/>
<pin name="P1" x="2.54" y="-5.08" visible="pad" length="short" direction="pas" swaplevel="2" rot="R90"/>
</symbol>
<symbol name="D">
<wire x1="-1.27" y1="-1.27" x2="1.27" y2="0" width="0.254" layer="94"/>
<wire x1="1.27" y1="0" x2="-1.27" y2="1.27" width="0.254" layer="94"/>
<wire x1="1.27" y1="1.27" x2="1.27" y2="0" width="0.254" layer="94"/>
<wire x1="-1.27" y1="1.27" x2="-1.27" y2="-1.27" width="0.254" layer="94"/>
<wire x1="1.27" y1="0" x2="1.27" y2="-1.27" width="0.254" layer="94"/>
<text x="2.54" y="0.4826" size="1.778" layer="95">&gt;NAME</text>
<text x="2.54" y="-2.3114" size="1.778" layer="96">&gt;VALUE</text>
<pin name="A" x="-2.54" y="0" visible="off" length="short" direction="pas"/>
<pin name="C" x="2.54" y="0" visible="off" length="short" direction="pas" rot="R180"/>
</symbol>
<symbol name="R_SHUNT">
<wire x1="-3.81" y1="-0.889" x2="1.27" y2="-0.889" width="0.254" layer="94"/>
<wire x1="1.27" y1="0.889" x2="-3.81" y2="0.889" width="0.254" layer="94"/>
<wire x1="1.27" y1="-0.889" x2="1.27" y2="-0.254" width="0.254" layer="94"/>
<wire x1="1.27" y1="-0.254" x2="1.27" y2="0" width="0.254" layer="94"/>
<wire x1="1.27" y1="0" x2="1.27" y2="0.889" width="0.254" layer="94"/>
<wire x1="-3.81" y1="-0.889" x2="-3.81" y2="-0.254" width="0.254" layer="94"/>
<wire x1="-3.81" y1="-0.254" x2="-3.81" y2="0" width="0.254" layer="94"/>
<wire x1="-3.81" y1="0" x2="-3.81" y2="0.889" width="0.254" layer="94"/>
<wire x1="-5.08" y1="0" x2="-3.81" y2="0" width="0.1524" layer="94"/>
<wire x1="2.54" y1="0" x2="1.27" y2="0" width="0.1524" layer="94"/>
<wire x1="-5.08" y1="-2.54" x2="-3.81" y2="-0.254" width="0.1524" layer="94"/>
<wire x1="2.54" y1="-2.54" x2="1.27" y2="-0.254" width="0.1524" layer="94"/>
<text x="-4.572" y="1.3716" size="1.778" layer="95">&gt;NAME</text>
<text x="-4.826" y="-4.445" size="1.778" layer="96">&gt;VALUE</text>
<pin name="SB" x="-7.62" y="-2.54" visible="off" length="short" direction="pas" swaplevel="2"/>
<pin name="SA" x="5.08" y="-2.54" visible="off" length="short" direction="pas" swaplevel="2" rot="R180"/>
<pin name="B" x="-7.62" y="0" visible="off" length="short" direction="pas" swaplevel="1"/>
<pin name="A" x="5.08" y="0" visible="off" length="short" direction="pas" swaplevel="1" rot="R180"/>
</symbol>
<symbol name="ZENER">
<wire x1="-1.27" y1="-1.27" x2="1.27" y2="0" width="0.254" layer="94"/>
<wire x1="1.27" y1="0" x2="-1.27" y2="1.27" width="0.254" layer="94"/>
<wire x1="1.27" y1="1.27" x2="1.27" y2="0" width="0.254" layer="94"/>
<wire x1="-1.27" y1="1.27" x2="-1.27" y2="-1.27" width="0.254" layer="94"/>
<wire x1="1.27" y1="0" x2="1.27" y2="-1.27" width="0.254" layer="94"/>
<wire x1="1.27" y1="-1.27" x2="0.635" y2="-1.27" width="0.254" layer="94"/>
<text x="-1.778" y="1.905" size="1.778" layer="95">&gt;NAME</text>
<text x="-1.778" y="-3.429" size="1.778" layer="96">&gt;VALUE</text>
<pin name="ANODE" x="-2.54" y="0" visible="off" length="short" direction="pas"/>
<pin name="CATHODE" x="2.54" y="0" visible="off" length="short" direction="pas" rot="R180"/>
</symbol>
<symbol name="RESONATOR">
<wire x1="1.016" y1="0" x2="2.54" y2="0" width="0.1524" layer="94"/>
<wire x1="-2.54" y1="0" x2="-1.016" y2="0" width="0.1524" layer="94"/>
<wire x1="-0.381" y1="1.524" x2="-0.381" y2="-1.524" width="0.254" layer="94"/>
<wire x1="-0.381" y1="-1.524" x2="0.381" y2="-1.524" width="0.254" layer="94"/>
<wire x1="0.381" y1="-1.524" x2="0.381" y2="1.524" width="0.254" layer="94"/>
<wire x1="0.381" y1="1.524" x2="-0.381" y2="1.524" width="0.254" layer="94"/>
<wire x1="1.016" y1="1.778" x2="1.016" y2="-1.778" width="0.254" layer="94"/>
<wire x1="-1.016" y1="1.778" x2="-1.016" y2="-1.778" width="0.254" layer="94"/>
<text x="2.54" y="1.016" size="1.778" layer="95">&gt;NAME</text>
<text x="2.54" y="-2.54" size="1.778" layer="96">&gt;VALUE</text>
<pin name="2" x="2.54" y="0" visible="off" length="point" direction="pas" swaplevel="1" rot="R180"/>
<pin name="1" x="-2.54" y="0" visible="off" length="point" direction="pas" swaplevel="1"/>
</symbol>
<symbol name="CRYSTAL-MHZ">
<wire x1="1.016" y1="0" x2="2.54" y2="0" width="0.1524" layer="94"/>
<wire x1="-2.54" y1="0" x2="-1.016" y2="0" width="0.1524" layer="94"/>
<wire x1="-0.381" y1="1.524" x2="-0.381" y2="-1.524" width="0.254" layer="94"/>
<wire x1="-0.381" y1="-1.524" x2="0.381" y2="-1.524" width="0.254" layer="94"/>
<wire x1="0.381" y1="-1.524" x2="0.381" y2="1.524" width="0.254" layer="94"/>
<wire x1="0.381" y1="1.524" x2="-0.381" y2="1.524" width="0.254" layer="94"/>
<wire x1="1.016" y1="1.778" x2="1.016" y2="-1.778" width="0.254" layer="94"/>
<wire x1="-1.016" y1="1.778" x2="-1.016" y2="-1.778" width="0.254" layer="94"/>
<text x="2.54" y="1.016" size="1.778" layer="95">&gt;NAME</text>
<text x="2.54" y="-2.54" size="1.778" layer="96">&gt;VALUE</text>
<pin name="2" x="2.54" y="0" visible="off" length="point" direction="pas" swaplevel="1" rot="R180"/>
<pin name="1" x="-2.54" y="0" visible="off" length="point" direction="pas" swaplevel="1"/>
<pin name="GND" x="0" y="-7.62" length="middle" rot="R90"/>
</symbol>
<symbol name="CAP-ELECTROLYTIC">
<pin name="C" x="0" y="-2.54" visible="off" length="short" rot="R90"/>
<pin name="A" x="0" y="5.08" visible="off" length="short" rot="R270"/>
<wire x1="-2.032" y1="1.778" x2="0" y2="1.778" width="0.254" layer="94"/>
<wire x1="0" y1="1.778" x2="2.032" y2="1.778" width="0.254" layer="94"/>
<wire x1="-2.032" y1="0.762" x2="2.032" y2="0.762" width="0.254" layer="94" curve="-33.398492"/>
<wire x1="0" y1="1.016" x2="0" y2="0" width="0.254" layer="94"/>
<wire x1="0" y1="1.778" x2="0" y2="2.54" width="0.254" layer="94"/>
<wire x1="0.762" y1="3.048" x2="1.778" y2="3.048" width="0.254" layer="94"/>
<wire x1="1.27" y1="3.556" x2="1.27" y2="2.54" width="0.254" layer="94"/>
<text x="2.54" y="5.08" size="1.778" layer="95">&gt;NAME</text>
<text x="2.54" y="-2.54" size="1.778" layer="96">&gt;VALUE</text>
</symbol>
</symbols>
<devicesets>
<deviceset name="CAP" prefix="C" uservalue="yes">
<description>&lt;b&gt;Capacitor&lt;/b&gt;
Standard 0603 ceramic capacitor, and 0.1" leaded capacitor.</description>
<gates>
<gate name="G$1" symbol="CAP" x="0" y="0"/>
</gates>
<devices>
<device name="0805" package="0805">
<connects>
<connect gate="G$1" pin="1" pad="1"/>
<connect gate="G$1" pin="2" pad="2"/>
</connects>
<technologies>
<technology name="">
<attribute name="PACKAGE" value="0805"/>
<attribute name="TYPE" value="" constant="no"/>
<attribute name="VOLTAGE" value="" constant="no"/>
</technology>
</technologies>
</device>
<device name="0603-CAP" package="0603-CAP">
<connects>
<connect gate="G$1" pin="1" pad="1"/>
<connect gate="G$1" pin="2" pad="2"/>
</connects>
<technologies>
<technology name="">
<attribute name="PACKAGE" value="0603"/>
<attribute name="TYPE" value="" constant="no"/>
<attribute name="VOLTAGE" value="" constant="no"/>
</technology>
</technologies>
</device>
<device name="1210" package="1210">
<connects>
<connect gate="G$1" pin="1" pad="1"/>
<connect gate="G$1" pin="2" pad="2"/>
</connects>
<technologies>
<technology name="">
<attribute name="PACKAGE" value="1210" constant="no"/>
<attribute name="TYPE" value="" constant="no"/>
<attribute name="VOLTAGE" value="" constant="no"/>
</technology>
</technologies>
</device>
<device name="1206" package="1206">
<connects>
<connect gate="G$1" pin="1" pad="1"/>
<connect gate="G$1" pin="2" pad="2"/>
</connects>
<technologies>
<technology name="">
<attribute name="PACKAGE" value="1206" constant="no"/>
<attribute name="TYPE" value="" constant="no"/>
<attribute name="VOLTAGE" value="" constant="no"/>
</technology>
</technologies>
</device>
<device name="2220" package="2220-C">
<connects>
<connect gate="G$1" pin="1" pad="P$1"/>
<connect gate="G$1" pin="2" pad="P$2"/>
</connects>
<technologies>
<technology name=""/>
</technologies>
</device>
<device name="0402" package="0402">
<connects>
<connect gate="G$1" pin="1" pad="1"/>
<connect gate="G$1" pin="2" pad="2"/>
</connects>
<technologies>
<technology name=""/>
</technologies>
</device>
</devices>
</deviceset>
<deviceset name="INDUCTOR" prefix="L" uservalue="yes">
<gates>
<gate name="G$1" symbol="INDUCTOR" x="0" y="0"/>
</gates>
<devices>
<device name="-744777920" package="744777920-INDUCTOR">
<connects>
<connect gate="G$1" pin="1" pad="P$1"/>
<connect gate="G$1" pin="2" pad="P$2"/>
</connects>
<technologies>
<technology name=""/>
</technologies>
</device>
<device name="-0805" package="0805">
<connects>
<connect gate="G$1" pin="1" pad="1"/>
<connect gate="G$1" pin="2" pad="2"/>
</connects>
<technologies>
<technology name="">
<attribute name="PACKAGE" value="0805"/>
</technology>
</technologies>
</device>
<device name="-SPM6530" package="SPM6530-IND">
<connects>
<connect gate="G$1" pin="1" pad="1"/>
<connect gate="G$1" pin="2" pad="2"/>
</connects>
<technologies>
<technology name=""/>
</technologies>
</device>
<device name="-IHLP-5050FD-01" package="IHLP-5050FD-01-IND">
<connects>
<connect gate="G$1" pin="1" pad="1"/>
<connect gate="G$1" pin="2" pad="2"/>
</connects>
<technologies>
<technology name=""/>
</technologies>
</device>
<device name="-7443340330" package="7443340330-IND">
<connects>
<connect gate="G$1" pin="1" pad="P$1"/>
<connect gate="G$1" pin="2" pad="P$2"/>
</connects>
<technologies>
<technology name="">
<attribute name="PACKAGE" value="7443340330"/>
</technology>
</technologies>
</device>
<device name="-0402" package="0402-RES">
<connects>
<connect gate="G$1" pin="1" pad="1"/>
<connect gate="G$1" pin="2" pad="2"/>
</connects>
<technologies>
<technology name="">
<attribute name="PACKAGE" value="0402"/>
</technology>
</technologies>
</device>
<device name="-744778002" package="8X8-IND">
<connects>
<connect gate="G$1" pin="1" pad="1"/>
<connect gate="G$1" pin="2" pad="2"/>
</connects>
<technologies>
<technology name=""/>
</technologies>
</device>
<device name="-744029100" package="744029100-IND">
<connects>
<connect gate="G$1" pin="1" pad="1"/>
<connect gate="G$1" pin="2" pad="2"/>
</connects>
<technologies>
<technology name=""/>
</technologies>
</device>
<device name="-7447709470" package="7447709470-IND">
<connects>
<connect gate="G$1" pin="1" pad="1"/>
<connect gate="G$1" pin="2" pad="2"/>
</connects>
<technologies>
<technology name=""/>
</technologies>
</device>
<device name="-7447789002" package="7447789002-IND">
<connects>
<connect gate="G$1" pin="1" pad="1"/>
<connect gate="G$1" pin="2" pad="2"/>
</connects>
<technologies>
<technology name=""/>
</technologies>
</device>
<device name="" package="NRS5020">
<connects>
<connect gate="G$1" pin="1" pad="P$1"/>
<connect gate="G$1" pin="2" pad="P$2"/>
</connects>
<technologies>
<technology name=""/>
</technologies>
</device>
<device name="-0603" package="0603-CAP">
<connects>
<connect gate="G$1" pin="1" pad="2"/>
<connect gate="G$1" pin="2" pad="1"/>
</connects>
<technologies>
<technology name=""/>
</technologies>
</device>
</devices>
</deviceset>
<deviceset name="RESISTOR" prefix="R" uservalue="yes">
<description>&lt;b&gt;Resistor&lt;/b&gt;
Basic schematic elements and footprints for 0603, 1206, and PTH resistors.</description>
<gates>
<gate name="G$1" symbol="RESISTOR" x="0" y="0"/>
</gates>
<devices>
<device name="1206" package="1206">
<connects>
<connect gate="G$1" pin="1" pad="1"/>
<connect gate="G$1" pin="2" pad="2"/>
</connects>
<technologies>
<technology name="">
<attribute name="PACKAGE" value="1206" constant="no"/>
<attribute name="PRECISION" value="" constant="no"/>
</technology>
</technologies>
</device>
<device name="2010" package="R2010">
<connects>
<connect gate="G$1" pin="1" pad="1"/>
<connect gate="G$1" pin="2" pad="2"/>
</connects>
<technologies>
<technology name="">
<attribute name="PACKAGE" value="2010"/>
<attribute name="PRECISION" value="" constant="no"/>
</technology>
</technologies>
</device>
<device name="0805-RES" package="0805">
<connects>
<connect gate="G$1" pin="1" pad="1"/>
<connect gate="G$1" pin="2" pad="2"/>
</connects>
<technologies>
<technology name="">
<attribute name="PACKAGE" value="0805"/>
<attribute name="PRECISION" value="" constant="no"/>
</technology>
</technologies>
</device>
<device name="0603-RES" package="0603-RES">
<connects>
<connect gate="G$1" pin="1" pad="1"/>
<connect gate="G$1" pin="2" pad="2"/>
</connects>
<technologies>
<technology name="">
<attribute name="PACKAGE" value="0603"/>
<attribute name="PRECISION" value="" constant="no"/>
</technology>
</technologies>
</device>
<device name="2512" package="R2512">
<connects>
<connect gate="G$1" pin="1" pad="1"/>
<connect gate="G$1" pin="2" pad="2"/>
</connects>
<technologies>
<technology name="">
<attribute name="PACKAGE" value="2512"/>
<attribute name="PRECISION" value="" constant="no"/>
</technology>
</technologies>
</device>
<device name="TO220ACS" package="TO220ACS">
<connects>
<connect gate="G$1" pin="1" pad="A"/>
<connect gate="G$1" pin="2" pad="C"/>
</connects>
<technologies>
<technology name=""/>
</technologies>
</device>
<device name="0402" package="0402">
<connects>
<connect gate="G$1" pin="1" pad="1"/>
<connect gate="G$1" pin="2" pad="2"/>
</connects>
<technologies>
<technology name=""/>
</technologies>
</device>
</devices>
</deviceset>
<deviceset name="RESONATOR" prefix="Y">
<gates>
<gate name="G$1" symbol="CERAMIC_RESONATOR" x="0" y="0"/>
</gates>
<devices>
<device name="" package="RES_EFOBM">
<connects>
<connect gate="G$1" pin="1" pad="1"/>
<connect gate="G$1" pin="2" pad="2"/>
<connect gate="G$1" pin="3" pad="3"/>
</connects>
<technologies>
<technology name=""/>
</technologies>
</device>
<device name="PQRC" package="RES_PRQC">
<connects>
<connect gate="G$1" pin="1" pad="1"/>
<connect gate="G$1" pin="2" pad="2"/>
<connect gate="G$1" pin="3" pad="3"/>
</connects>
<technologies>
<technology name=""/>
</technologies>
</device>
</devices>
</deviceset>
<deviceset name="2-8X4-5_SWITCH" prefix="S">
<gates>
<gate name="G$1" symbol="TS2" x="0" y="0"/>
</gates>
<devices>
<device name="" package="TACT-SWITCH-KMR6">
<connects>
<connect gate="G$1" pin="P" pad="P$1"/>
<connect gate="G$1" pin="P1" pad="P$2"/>
<connect gate="G$1" pin="S" pad="P$3"/>
<connect gate="G$1" pin="S1" pad="P$4"/>
</connects>
<technologies>
<technology name=""/>
</technologies>
</device>
<device name="SIDE" package="TACT-SWITCH-SIDE">
<connects>
<connect gate="G$1" pin="P" pad="P$1"/>
<connect gate="G$1" pin="P1" pad="P$2"/>
<connect gate="G$1" pin="S" pad="P$3"/>
<connect gate="G$1" pin="S1" pad="P$4"/>
</connects>
<technologies>
<technology name=""/>
</technologies>
</device>
</devices>
</deviceset>
<deviceset name="DIODE" prefix="D" uservalue="yes">
<description>&lt;B&gt;DIODE&lt;/B&gt;&lt;p&gt;
high speed (Philips)</description>
<gates>
<gate name="G$1" symbol="D" x="0" y="0"/>
</gates>
<devices>
<device name="SOD123" package="SOD123">
<connects>
<connect gate="G$1" pin="A" pad="ANODE"/>
<connect gate="G$1" pin="C" pad="CATHODE"/>
</connects>
<technologies>
<technology name=""/>
</technologies>
</device>
<device name="DIODE" package="0805-DIODE">
<connects>
<connect gate="G$1" pin="A" pad="1"/>
<connect gate="G$1" pin="C" pad="2"/>
</connects>
<technologies>
<technology name=""/>
</technologies>
</device>
<device name="SOD123HE" package="SOD-123HE">
<connects>
<connect gate="G$1" pin="A" pad="P$2"/>
<connect gate="G$1" pin="C" pad="P$1"/>
</connects>
<technologies>
<technology name=""/>
</technologies>
</device>
<device name="SMA403D" package="SMA-403D">
<connects>
<connect gate="G$1" pin="A" pad="P$2"/>
<connect gate="G$1" pin="C" pad="P$1"/>
</connects>
<technologies>
<technology name=""/>
</technologies>
</device>
</devices>
</deviceset>
<deviceset name="R_SHUNT" prefix="R" uservalue="yes">
<description>&lt;b&gt;Resistor&lt;/b&gt;
Basic schematic elements and footprints for 0603, 1206, and PTH resistors.</description>
<gates>
<gate name="G$1" symbol="R_SHUNT" x="2.54" y="0"/>
</gates>
<devices>
<device name="" package="WSL2726">
<connects>
<connect gate="G$1" pin="A" pad="A"/>
<connect gate="G$1" pin="B" pad="B"/>
<connect gate="G$1" pin="SA" pad="SA"/>
<connect gate="G$1" pin="SB" pad="SB"/>
</connects>
<technologies>
<technology name=""/>
</technologies>
</device>
<device name="2512" package="R2512_SHUNT">
<connects>
<connect gate="G$1" pin="A" pad="A"/>
<connect gate="G$1" pin="B" pad="B"/>
<connect gate="G$1" pin="SA" pad="SA"/>
<connect gate="G$1" pin="SB" pad="SB"/>
</connects>
<technologies>
<technology name=""/>
</technologies>
</device>
</devices>
</deviceset>
<deviceset name="ZENER_DIODE" prefix="D" uservalue="yes">
<description>zener diode</description>
<gates>
<gate name="1" symbol="ZENER" x="0" y="0"/>
</gates>
<devices>
<device name="DO41Z10" package="DO41Z10">
<connects>
<connect gate="1" pin="ANODE" pad="A"/>
<connect gate="1" pin="CATHODE" pad="C"/>
</connects>
<technologies>
<technology name=""/>
</technologies>
</device>
<device name="SOD123" package="SOD123">
<connects>
<connect gate="1" pin="ANODE" pad="ANODE"/>
<connect gate="1" pin="CATHODE" pad="CATHODE"/>
</connects>
<technologies>
<technology name=""/>
</technologies>
</device>
<device name="" package="SMA-DO-214AC">
<connects>
<connect gate="1" pin="ANODE" pad="P$1"/>
<connect gate="1" pin="CATHODE" pad="P$2"/>
</connects>
<technologies>
<technology name=""/>
</technologies>
</device>
</devices>
</deviceset>
<deviceset name="KHZ-CRYSTAL" prefix="Y">
<gates>
<gate name="G$1" symbol="RESONATOR" x="0" y="0"/>
</gates>
<devices>
<device name="" package="2-SMD-3.2X1.5MM">
<connects>
<connect gate="G$1" pin="1" pad="P$1"/>
<connect gate="G$1" pin="2" pad="P$2"/>
</connects>
<technologies>
<technology name=""/>
</technologies>
</device>
</devices>
</deviceset>
<deviceset name="ECX-39" prefix="Y">
<gates>
<gate name="G$1" symbol="RESONATOR" x="0" y="0"/>
</gates>
<devices>
<device name="" package="2-SMD-4.9X1.8MM">
<connects>
<connect gate="G$1" pin="1" pad="P$1"/>
<connect gate="G$1" pin="2" pad="P$2"/>
</connects>
<technologies>
<technology name=""/>
</technologies>
</device>
</devices>
</deviceset>
<deviceset name="MHZ-CRYSTAL" prefix="Y">
<gates>
<gate name="G$1" symbol="CRYSTAL-MHZ" x="0" y="0"/>
</gates>
<devices>
<device name="" package="4-SMD-3.2X2.5">
<connects>
<connect gate="G$1" pin="1" pad="P$1"/>
<connect gate="G$1" pin="2" pad="P$3"/>
<connect gate="G$1" pin="GND" pad="P$2 P$4"/>
</connects>
<technologies>
<technology name=""/>
</technologies>
</device>
</devices>
</deviceset>
<deviceset name="CAP-POL">
<gates>
<gate name="G$1" symbol="CAP-ELECTROLYTIC" x="0" y="0"/>
</gates>
<devices>
<device name="" package="SMD-ELEC-CAP">
<connects>
<connect gate="G$1" pin="A" pad="A"/>
<connect gate="G$1" pin="C" pad="C"/>
</connects>
<technologies>
<technology name=""/>
</technologies>
</device>
</devices>
</deviceset>
</devicesets>
</library>
</drawing>
</eagle>
