<?xml version="1.0" encoding="utf-8"?>
<!DOCTYPE eagle SYSTEM "eagle.dtd">
<eagle version="8.3.2">
<drawing>
<settings>
<setting alwaysvectorfont="no"/>
<setting keepoldvectorfont="yes"/>
<setting verticaltext="up"/>
</settings>
<grid distance="50" unitdist="mil" unit="mil" style="lines" multiple="1" display="yes" altdistance="5" altunitdist="mil" altunit="mil"/>
<layers>
<layer number="1" name="Top" color="4" fill="1" visible="yes" active="yes"/>
<layer number="2" name="Route2" color="1" fill="3" visible="no" active="yes"/>
<layer number="3" name="Route3" color="4" fill="3" visible="no" active="yes"/>
<layer number="4" name="Route4" color="1" fill="4" visible="no" active="yes"/>
<layer number="5" name="Route5" color="4" fill="4" visible="no" active="yes"/>
<layer number="6" name="Route6" color="1" fill="8" visible="no" active="yes"/>
<layer number="7" name="Route7" color="4" fill="8" visible="no" active="yes"/>
<layer number="8" name="Route8" color="1" fill="2" visible="no" active="yes"/>
<layer number="9" name="Route9" color="4" fill="2" visible="no" active="yes"/>
<layer number="10" name="Route10" color="1" fill="7" visible="no" active="yes"/>
<layer number="11" name="Route11" color="4" fill="7" visible="no" active="yes"/>
<layer number="12" name="Route12" color="1" fill="5" visible="no" active="yes"/>
<layer number="13" name="Route13" color="4" fill="5" visible="no" active="yes"/>
<layer number="14" name="Route14" color="1" fill="6" visible="no" active="yes"/>
<layer number="15" name="Route15" color="4" fill="6" visible="no" active="yes"/>
<layer number="16" name="Bottom" color="1" fill="1" visible="no" active="yes"/>
<layer number="17" name="Pads" color="2" fill="1" visible="yes" active="yes"/>
<layer number="18" name="Vias" color="2" fill="1" visible="yes" active="yes"/>
<layer number="19" name="Unrouted" color="6" fill="1" visible="yes" active="yes"/>
<layer number="20" name="Dimension" color="15" fill="1" visible="yes" active="yes"/>
<layer number="21" name="tPlace" color="7" fill="1" visible="yes" active="yes"/>
<layer number="22" name="bPlace" color="7" fill="1" visible="no" active="yes"/>
<layer number="23" name="tOrigins" color="15" fill="1" visible="yes" active="yes"/>
<layer number="24" name="bOrigins" color="15" fill="1" visible="no" active="yes"/>
<layer number="25" name="tNames" color="7" fill="1" visible="yes" active="yes"/>
<layer number="26" name="bNames" color="7" fill="1" visible="no" active="yes"/>
<layer number="27" name="tValues" color="7" fill="1" visible="no" active="yes"/>
<layer number="28" name="bValues" color="7" fill="1" visible="no" active="yes"/>
<layer number="29" name="tStop" color="7" fill="3" visible="yes" active="yes"/>
<layer number="30" name="bStop" color="7" fill="6" visible="no" active="yes"/>
<layer number="31" name="tCream" color="7" fill="4" visible="yes" active="yes"/>
<layer number="32" name="bCream" color="7" fill="5" visible="no" active="yes"/>
<layer number="33" name="tFinish" color="6" fill="3" visible="no" active="yes"/>
<layer number="34" name="bFinish" color="6" fill="6" visible="no" active="yes"/>
<layer number="35" name="tGlue" color="7" fill="4" visible="no" active="yes"/>
<layer number="36" name="bGlue" color="7" fill="5" visible="no" active="yes"/>
<layer number="37" name="tTest" color="7" fill="1" visible="no" active="yes"/>
<layer number="38" name="bTest" color="7" fill="1" visible="no" active="yes"/>
<layer number="39" name="tKeepout" color="4" fill="11" visible="yes" active="yes"/>
<layer number="40" name="bKeepout" color="1" fill="11" visible="no" active="yes"/>
<layer number="41" name="tRestrict" color="4" fill="10" visible="yes" active="yes"/>
<layer number="42" name="bRestrict" color="1" fill="10" visible="no" active="yes"/>
<layer number="43" name="vRestrict" color="2" fill="10" visible="no" active="yes"/>
<layer number="44" name="Drills" color="7" fill="1" visible="no" active="yes"/>
<layer number="45" name="Holes" color="7" fill="1" visible="yes" active="yes"/>
<layer number="46" name="Milling" color="3" fill="1" visible="no" active="yes"/>
<layer number="47" name="Measures" color="7" fill="1" visible="no" active="yes"/>
<layer number="48" name="Document" color="7" fill="1" visible="no" active="yes"/>
<layer number="49" name="Reference" color="7" fill="1" visible="no" active="yes"/>
<layer number="50" name="dxf" color="7" fill="1" visible="no" active="yes"/>
<layer number="51" name="tDocu" color="7" fill="1" visible="yes" active="yes"/>
<layer number="52" name="bDocu" color="7" fill="1" visible="no" active="yes"/>
<layer number="53" name="tGND_GNDA" color="7" fill="9" visible="no" active="no"/>
<layer number="54" name="bGND_GNDA" color="1" fill="9" visible="no" active="no"/>
<layer number="56" name="wert" color="7" fill="1" visible="no" active="yes"/>
<layer number="91" name="Nets" color="2" fill="1" visible="yes" active="yes"/>
<layer number="92" name="Busses" color="1" fill="1" visible="yes" active="yes"/>
<layer number="93" name="Pins" color="2" fill="1" visible="no" active="yes"/>
<layer number="94" name="Symbols" color="4" fill="1" visible="yes" active="yes"/>
<layer number="95" name="Names" color="7" fill="1" visible="yes" active="yes"/>
<layer number="96" name="Values" color="7" fill="1" visible="yes" active="yes"/>
<layer number="97" name="Info" color="7" fill="1" visible="yes" active="yes"/>
<layer number="98" name="Guide" color="6" fill="1" visible="yes" active="yes"/>
<layer number="100" name="Release" color="7" fill="1" visible="no" active="yes"/>
<layer number="101" name="Heatsink" color="7" fill="1" visible="no" active="yes"/>
<layer number="102" name="tMarkings" color="7" fill="1" visible="no" active="yes"/>
<layer number="103" name="bMarkings" color="7" fill="1" visible="no" active="yes"/>
<layer number="104" name="Name" color="7" fill="1" visible="no" active="yes"/>
<layer number="105" name="tPlate" color="7" fill="1" visible="no" active="yes"/>
<layer number="106" name="bPlate" color="7" fill="1" visible="no" active="yes"/>
<layer number="107" name="Crop" color="7" fill="1" visible="no" active="yes"/>
<layer number="116" name="Patch_BOT" color="9" fill="4" visible="no" active="yes"/>
<layer number="121" name="_layer121" color="7" fill="1" visible="no" active="yes"/>
<layer number="122" name="_bplace" color="7" fill="1" visible="no" active="yes"/>
<layer number="150" name="References" color="7" fill="1" visible="no" active="yes"/>
<layer number="151" name="HeatSink" color="14" fill="1" visible="no" active="no"/>
<layer number="200" name="200bmp" color="1" fill="10" visible="no" active="yes"/>
<layer number="201" name="201bmp" color="2" fill="10" visible="no" active="yes"/>
<layer number="202" name="202bmp" color="3" fill="10" visible="no" active="yes"/>
<layer number="203" name="203bmp" color="4" fill="10" visible="no" active="yes"/>
<layer number="204" name="204bmp" color="5" fill="10" visible="no" active="yes"/>
<layer number="205" name="205bmp" color="6" fill="10" visible="no" active="yes"/>
<layer number="206" name="206bmp" color="7" fill="10" visible="no" active="yes"/>
<layer number="207" name="207bmp" color="8" fill="10" visible="no" active="yes"/>
<layer number="208" name="208bmp" color="9" fill="10" visible="no" active="yes"/>
<layer number="231" name="Eagle3D_PG1" color="14" fill="1" visible="no" active="yes"/>
<layer number="232" name="Eagle3D_PG2" color="14" fill="2" visible="no" active="yes"/>
<layer number="233" name="Eagle3D_PG3" color="14" fill="4" visible="no" active="yes"/>
<layer number="250" name="Descript" color="7" fill="1" visible="no" active="yes"/>
<layer number="251" name="SMDround" color="7" fill="1" visible="no" active="yes"/>
<layer number="254" name="OrgLBR" color="13" fill="1" visible="no" active="no"/>
</layers>
<library>
<packages>
<package name="TC2050-MCP-NL">
<description>&lt;B&gt;TAG-CONNECT ISP Connector&lt;/B&gt;&lt;BR&gt;&lt;BR&gt;&lt;I&gt;Manufacturer:&lt;/I&gt; &lt;a href="www.tag-connect.com"&gt;Tag-Connect&lt;/a&gt;&lt;BR&gt;
&lt;BR&gt;Cable for easy In-Circuit PCB Programming. Designed for Standard JTAG 10 Pin, suitable for many others.&lt;BR&gt;
&lt;BR&gt;Footprint for TC2050 NL &lt;BR&gt;

&lt;TABLE cellspacing=0 cellpadding=0 border=0&gt;
&lt;TR&gt;&lt;TD width=20&gt;&lt;/TD&gt;&lt;TD&gt;
&lt;TABLE cellspacing=0 cellpadding=1 border=1&gt;
&lt;TR bgcolor=silver&gt;&lt;TD align=center&gt;PAD&lt;/TD&gt;&lt;TD align=center&gt;Description&lt;/TD&gt;&lt;/TR&gt;
&lt;TR&gt;&lt;TD align=center&gt;1&lt;/TD&gt;&lt;TD&gt;VTREF&lt;/TD&gt;&lt;/TR&gt;
&lt;TR&gt;&lt;TD align=center&gt;2&lt;/TD&gt;&lt;TD&gt;nTRST&lt;/TD&gt;&lt;/TR&gt;
&lt;TR&gt;&lt;TD align=center&gt;3&lt;/TD&gt;&lt;TD&gt;TDI&lt;/TD&gt;&lt;/TR&gt;
&lt;TR&gt;&lt;TD align=center&gt;4&lt;/TD&gt;&lt;TD&gt;TMS&lt;/TD&gt;&lt;/TR&gt;
&lt;TR&gt;&lt;TD align=center&gt;5&lt;/TD&gt;&lt;TD&gt;TCK&lt;/TD&gt;&lt;/TR&gt;
&lt;TR&gt;&lt;TD align=center&gt;6&lt;/TD&gt;&lt;TD&gt;RTCK&lt;/TD&gt;&lt;/TR&gt;
&lt;TR&gt;&lt;TD align=center&gt;7&lt;/TD&gt;&lt;TD&gt;TDO&lt;/TD&gt;&lt;/TR&gt;
&lt;TR&gt;&lt;TD align=center&gt;8&lt;/TD&gt;&lt;TD&gt;RESET&lt;/TD&gt;&lt;/TR&gt;
&lt;TR&gt;&lt;TD align=center&gt;9&lt;/TD&gt;&lt;TD&gt;GND&lt;/TD&gt;&lt;/TR&gt;
&lt;TR&gt;&lt;TD align=center&gt;10&lt;/TD&gt;&lt;TD&gt;NC&lt;/TD&gt;&lt;/TR&gt;
&lt;/TABLE&gt;
&lt;/TD&gt;&lt;/TR&gt;&lt;/TABLE&gt;&lt;BR&gt;&lt;BR&gt;
©2009 ROFA.cz
Modified 7/2011 by Tim McCarthy-Smith 
VIDA Products INC</description>
<wire x1="0" y1="-2.54" x2="7.62" y2="-2.54" width="0.127" layer="21"/>
<smd name="10" x="1.27" y="0.635" dx="0.7874" dy="0.7874" layer="1" roundness="100" cream="no"/>
<smd name="9" x="2.54" y="0.635" dx="0.7874" dy="0.7874" layer="1" roundness="100" cream="no"/>
<smd name="8" x="3.81" y="0.635" dx="0.7874" dy="0.7874" layer="1" roundness="100" cream="no"/>
<smd name="3" x="3.81" y="-0.635" dx="0.7874" dy="0.7874" layer="1" roundness="100" cream="no"/>
<smd name="2" x="2.54" y="-0.635" dx="0.7874" dy="0.7874" layer="1" roundness="100" cream="no"/>
<smd name="1" x="1.27" y="-0.635" dx="0.7874" dy="0.7874" layer="1" roundness="100" cream="no"/>
<smd name="7" x="5.08" y="0.635" dx="0.7874" dy="0.7874" layer="1" roundness="100" cream="no"/>
<smd name="6" x="6.35" y="0.635" dx="0.7874" dy="0.7874" layer="1" roundness="100" cream="no"/>
<smd name="4" x="5.08" y="-0.635" dx="0.7874" dy="0.7874" layer="1" roundness="100" cream="no"/>
<smd name="5" x="6.35" y="-0.635" dx="0.7874" dy="0.7874" layer="1" roundness="100" cream="no"/>
<text x="-0.635" y="1.27" size="1.27" layer="25">&gt;name</text>
<hole x="0" y="0" drill="1"/>
<hole x="7.62" y="-1.016" drill="1"/>
<hole x="7.62" y="1.016" drill="1"/>
</package>
<package name="TC2050-MCP">
<description>&lt;B&gt;TAG-CONNECT ISP Connector&lt;/B&gt;&lt;BR&gt;&lt;BR&gt;&lt;I&gt;Manufacturer:&lt;/I&gt; &lt;a href="www.tag-connect.com"&gt;Tag-Connect&lt;/a&gt;&lt;BR&gt;
&lt;BR&gt;Cable for easy In-Circuit PCB Programming. Designed for Standard JTAG 10 Pin, suitable for many others.&lt;BR&gt;
&lt;BR&gt;Footprint for TC2050 NL &lt;BR&gt;

&lt;TABLE cellspacing=0 cellpadding=0 border=0&gt;
&lt;TR&gt;&lt;TD width=20&gt;&lt;/TD&gt;&lt;TD&gt;
&lt;TABLE cellspacing=0 cellpadding=1 border=1&gt;
&lt;TR bgcolor=silver&gt;&lt;TD align=center&gt;PAD&lt;/TD&gt;&lt;TD align=center&gt;Description&lt;/TD&gt;&lt;/TR&gt;
&lt;TR&gt;&lt;TD align=center&gt;1&lt;/TD&gt;&lt;TD&gt;VTREF&lt;/TD&gt;&lt;/TR&gt;
&lt;TR&gt;&lt;TD align=center&gt;2&lt;/TD&gt;&lt;TD&gt;nTRST&lt;/TD&gt;&lt;/TR&gt;
&lt;TR&gt;&lt;TD align=center&gt;3&lt;/TD&gt;&lt;TD&gt;TDI&lt;/TD&gt;&lt;/TR&gt;
&lt;TR&gt;&lt;TD align=center&gt;4&lt;/TD&gt;&lt;TD&gt;TMS&lt;/TD&gt;&lt;/TR&gt;
&lt;TR&gt;&lt;TD align=center&gt;5&lt;/TD&gt;&lt;TD&gt;TCK&lt;/TD&gt;&lt;/TR&gt;
&lt;TR&gt;&lt;TD align=center&gt;6&lt;/TD&gt;&lt;TD&gt;RTCK&lt;/TD&gt;&lt;/TR&gt;
&lt;TR&gt;&lt;TD align=center&gt;7&lt;/TD&gt;&lt;TD&gt;TDO&lt;/TD&gt;&lt;/TR&gt;
&lt;TR&gt;&lt;TD align=center&gt;8&lt;/TD&gt;&lt;TD&gt;RESET&lt;/TD&gt;&lt;/TR&gt;
&lt;TR&gt;&lt;TD align=center&gt;9&lt;/TD&gt;&lt;TD&gt;GND&lt;/TD&gt;&lt;/TR&gt;
&lt;TR&gt;&lt;TD align=center&gt;10&lt;/TD&gt;&lt;TD&gt;NC&lt;/TD&gt;&lt;/TR&gt;
&lt;/TABLE&gt;
&lt;/TD&gt;&lt;/TR&gt;&lt;/TABLE&gt;&lt;BR&gt;&lt;BR&gt;
©2009 ROFA.cz
Modified 7/2011 by Tim McCarthy-Smith 
VIDA Products INC</description>
<wire x1="0" y1="-2.54" x2="7.62" y2="-2.54" width="0.127" layer="21"/>
<smd name="10" x="1.27" y="0.635" dx="0.7874" dy="0.7874" layer="1" roundness="100" cream="no"/>
<smd name="9" x="2.54" y="0.635" dx="0.7874" dy="0.7874" layer="1" roundness="100" cream="no"/>
<smd name="8" x="3.81" y="0.635" dx="0.7874" dy="0.7874" layer="1" roundness="100" cream="no"/>
<smd name="3" x="3.81" y="-0.635" dx="0.7874" dy="0.7874" layer="1" roundness="100" cream="no"/>
<smd name="2" x="2.54" y="-0.635" dx="0.7874" dy="0.7874" layer="1" roundness="100" cream="no"/>
<smd name="1" x="1.27" y="-0.635" dx="0.7874" dy="0.7874" layer="1" roundness="100" cream="no"/>
<smd name="7" x="5.08" y="0.635" dx="0.7874" dy="0.7874" layer="1" roundness="100" cream="no"/>
<smd name="6" x="6.35" y="0.635" dx="0.7874" dy="0.7874" layer="1" roundness="100" cream="no"/>
<smd name="4" x="5.08" y="-0.635" dx="0.7874" dy="0.7874" layer="1" roundness="100" cream="no"/>
<smd name="5" x="6.35" y="-0.635" dx="0.7874" dy="0.7874" layer="1" roundness="100" cream="no"/>
<text x="-0.635" y="1.27" size="1.27" layer="25">&gt;name</text>
<hole x="0" y="0" drill="1"/>
<hole x="7.62" y="-1.016" drill="1"/>
<hole x="7.62" y="1.016" drill="1"/>
<hole x="0" y="2.54" drill="2.3749"/>
<hole x="0" y="-2.54" drill="2.3749"/>
<hole x="5.715" y="2.54" drill="2.3749"/>
<hole x="5.715" y="-2.54" drill="2.3749"/>
</package>
</packages>
<symbols>
<symbol name="TC2050">
<wire x1="-12.7" y1="15.24" x2="-12.7" y2="-35.56" width="0.254" layer="94"/>
<wire x1="-12.7" y1="-35.56" x2="7.62" y2="-35.56" width="0.254" layer="94"/>
<wire x1="7.62" y1="-35.56" x2="7.62" y2="15.24" width="0.254" layer="94"/>
<wire x1="7.62" y1="15.24" x2="-12.7" y2="15.24" width="0.254" layer="94"/>
<text x="-12.7" y="17.78" size="1.778" layer="95">&gt;NAME</text>
<pin name="VTREF" x="-17.78" y="-12.7" length="middle"/>
<pin name="!TRST" x="-17.78" y="-2.54" length="middle"/>
<pin name="TDI" x="-17.78" y="12.7" length="middle"/>
<pin name="TMS" x="-17.78" y="7.62" length="middle"/>
<pin name="TCK" x="-17.78" y="2.54" length="middle"/>
<pin name="RTCK" x="-17.78" y="-22.86" length="middle"/>
<pin name="TDO" x="-17.78" y="-7.62" length="middle"/>
<pin name="RESET" x="-17.78" y="-17.78" length="middle"/>
<pin name="GND" x="-17.78" y="-27.94" length="middle"/>
<pin name="NC" x="-17.78" y="-33.02" length="middle"/>
</symbol>
<symbol name="GND">
<wire x1="-1.905" y1="-2.54" x2="1.905" y2="-2.54" width="0.254" layer="94"/>
<wire x1="-2.032" y1="-2.54" x2="0" y2="-5.08" width="0.254" layer="94"/>
<wire x1="0" y1="-5.08" x2="2.032" y2="-2.54" width="0.254" layer="94"/>
<text x="-1.778" y="-6.858" size="1.4224" layer="96">&gt;VALUE</text>
<pin name="GND" x="0" y="0" visible="off" length="short" direction="sup" rot="R270"/>
</symbol>
</symbols>
<devicesets>
<deviceset name="TC2050" prefix="TP">
<description>&lt;B&gt;TAG-CONNECT ISP Connector&lt;/B&gt;&lt;BR&gt;&lt;BR&gt;&lt;I&gt;Manufacturer:&lt;/I&gt; &lt;a href="www.tag-connect.com"&gt;Tag-Connect&lt;/a&gt;&lt;BR&gt;
&lt;BR&gt;Cable for easy In-Circuit PCB Programming. Designed for JTAG 10 pin, suitable for many others.&lt;BR&gt;
Pin Connection for TC2050 NL.&lt;BR&gt;
&lt;TABLE cellspacing=0 cellpadding=0 border=0&gt;
&lt;TR&gt;&lt;TD width=20&gt;&lt;/TD&gt;&lt;TD&gt;
&lt;TABLE cellspacing=0 cellpadding=1 border=1&gt;
&lt;TR bgcolor=silver&gt;&lt;TD align=center&gt;PAD&lt;/TD&gt;&lt;TD align=center&gt;Description&lt;/TD&gt;&lt;/TR&gt;
&lt;TR&gt;&lt;TD align=center&gt;1&lt;/TD&gt;&lt;TD&gt;VTREF&lt;/TD&gt;&lt;/TR&gt;
&lt;TR&gt;&lt;TD align=center&gt;2&lt;/TD&gt;&lt;TD&gt;TMS&lt;/TD&gt;&lt;/TR&gt;
&lt;TR&gt;&lt;TD align=center&gt;3&lt;/TD&gt;&lt;TD&gt;GND&lt;/TD&gt;&lt;/TR&gt;
&lt;TR&gt;&lt;TD align=center&gt;4&lt;/TD&gt;&lt;TD&gt;TCK&lt;/TD&gt;&lt;/TR&gt;
&lt;TR&gt;&lt;TD align=center&gt;5&lt;/TD&gt;&lt;TD&gt;NC&lt;/TD&gt;&lt;/TR&gt;
&lt;TR&gt;&lt;TD align=center&gt;6&lt;/TD&gt;&lt;TD&gt;TDO&lt;/TD&gt;&lt;/TR&gt;
&lt;TR&gt;&lt;TD align=center&gt;7&lt;/TD&gt;&lt;TD&gt;RTCK&lt;/TD&gt;&lt;/TR&gt;
&lt;TR&gt;&lt;TD align=center&gt;8&lt;/TD&gt;&lt;TD&gt;TDI&lt;/TD&gt;&lt;/TR&gt;
&lt;TR&gt;&lt;TD align=center&gt;9&lt;/TD&gt;&lt;TD&gt;!TRST&lt;/TD&gt;&lt;/TR&gt;
&lt;TR&gt;&lt;TD align=center&gt;10&lt;/TD&gt;&lt;TD&gt;RESET&lt;/TD&gt;&lt;/TR&gt;
&lt;/TABLE&gt;
&lt;/TD&gt;&lt;/TR&gt;&lt;/TABLE&gt;&lt;BR&gt;&lt;BR&gt;
©2009 ROFA.cz
&lt;BR&gt;Modified 7/2011 by Tim McCarthy-Smith 
VIDA Products INC</description>
<gates>
<gate name="G$1" symbol="TC2050" x="0" y="0"/>
</gates>
<devices>
<device name="-MCP-NL" package="TC2050-MCP-NL">
<connects>
<connect gate="G$1" pin="!TRST" pad="9"/>
<connect gate="G$1" pin="GND" pad="3"/>
<connect gate="G$1" pin="NC" pad="5"/>
<connect gate="G$1" pin="RESET" pad="10"/>
<connect gate="G$1" pin="RTCK" pad="7"/>
<connect gate="G$1" pin="TCK" pad="4"/>
<connect gate="G$1" pin="TDI" pad="8"/>
<connect gate="G$1" pin="TDO" pad="6"/>
<connect gate="G$1" pin="TMS" pad="2"/>
<connect gate="G$1" pin="VTREF" pad="1"/>
</connects>
<technologies>
<technology name=""/>
</technologies>
</device>
</devices>
</deviceset>
<deviceset name="TC2050-NL">
<description>&lt;B&gt;TAG-CONNECT ISP Connector&lt;/B&gt;&lt;BR&gt;&lt;BR&gt;&lt;I&gt;Manufacturer:&lt;/I&gt; &lt;a href="www.tag-connect.com"&gt;Tag-Connect&lt;/a&gt;&lt;BR&gt;
&lt;BR&gt;Cable for easy In-Circuit PCB Programming. Designed for JTAG 10 pin, suitable for many others.&lt;BR&gt;
Pin Connection for TC2050 NL.&lt;BR&gt;
&lt;TABLE cellspacing=0 cellpadding=0 border=0&gt;
&lt;TR&gt;&lt;TD width=20&gt;&lt;/TD&gt;&lt;TD&gt;
&lt;TABLE cellspacing=0 cellpadding=1 border=1&gt;
&lt;TR bgcolor=silver&gt;&lt;TD align=center&gt;PAD&lt;/TD&gt;&lt;TD align=center&gt;Description&lt;/TD&gt;&lt;/TR&gt;
&lt;TR&gt;&lt;TD align=center&gt;1&lt;/TD&gt;&lt;TD&gt;VTREF&lt;/TD&gt;&lt;/TR&gt;
&lt;TR&gt;&lt;TD align=center&gt;2&lt;/TD&gt;&lt;TD&gt;TMS&lt;/TD&gt;&lt;/TR&gt;
&lt;TR&gt;&lt;TD align=center&gt;3&lt;/TD&gt;&lt;TD&gt;GND&lt;/TD&gt;&lt;/TR&gt;
&lt;TR&gt;&lt;TD align=center&gt;4&lt;/TD&gt;&lt;TD&gt;TCK&lt;/TD&gt;&lt;/TR&gt;
&lt;TR&gt;&lt;TD align=center&gt;5&lt;/TD&gt;&lt;TD&gt;NC&lt;/TD&gt;&lt;/TR&gt;
&lt;TR&gt;&lt;TD align=center&gt;6&lt;/TD&gt;&lt;TD&gt;TDO&lt;/TD&gt;&lt;/TR&gt;
&lt;TR&gt;&lt;TD align=center&gt;7&lt;/TD&gt;&lt;TD&gt;RTCK&lt;/TD&gt;&lt;/TR&gt;
&lt;TR&gt;&lt;TD align=center&gt;8&lt;/TD&gt;&lt;TD&gt;TDI&lt;/TD&gt;&lt;/TR&gt;
&lt;TR&gt;&lt;TD align=center&gt;9&lt;/TD&gt;&lt;TD&gt;!TRST&lt;/TD&gt;&lt;/TR&gt;
&lt;TR&gt;&lt;TD align=center&gt;10&lt;/TD&gt;&lt;TD&gt;RESET&lt;/TD&gt;&lt;/TR&gt;
&lt;/TABLE&gt;
&lt;/TD&gt;&lt;/TR&gt;&lt;/TABLE&gt;&lt;BR&gt;&lt;BR&gt;
©2009 ROFA.cz
&lt;BR&gt;Modified 7/2011 by Tim McCarthy-Smith 
VIDA Products INC</description>
<gates>
<gate name="G$1" symbol="TC2050" x="0" y="0"/>
</gates>
<devices>
<device name="-MCP-NL" package="TC2050-MCP-NL">
<connects>
<connect gate="G$1" pin="!TRST" pad="9"/>
<connect gate="G$1" pin="GND" pad="3"/>
<connect gate="G$1" pin="NC" pad="5"/>
<connect gate="G$1" pin="RESET" pad="10"/>
<connect gate="G$1" pin="RTCK" pad="7"/>
<connect gate="G$1" pin="TCK" pad="4"/>
<connect gate="G$1" pin="TDI" pad="8"/>
<connect gate="G$1" pin="TDO" pad="6"/>
<connect gate="G$1" pin="TMS" pad="2"/>
<connect gate="G$1" pin="VTREF" pad="1"/>
</connects>
<technologies>
<technology name=""/>
</technologies>
</device>
<device name="" package="TC2050-MCP">
<connects>
<connect gate="G$1" pin="!TRST" pad="9"/>
<connect gate="G$1" pin="GND" pad="3"/>
<connect gate="G$1" pin="NC" pad="5"/>
<connect gate="G$1" pin="RESET" pad="10"/>
<connect gate="G$1" pin="RTCK" pad="7"/>
<connect gate="G$1" pin="TCK" pad="4"/>
<connect gate="G$1" pin="TDI" pad="8"/>
<connect gate="G$1" pin="TDO" pad="6"/>
<connect gate="G$1" pin="TMS" pad="2"/>
<connect gate="G$1" pin="VTREF" pad="1"/>
</connects>
<technologies>
<technology name=""/>
</technologies>
</device>
</devices>
</deviceset>
<deviceset name="GND" prefix="GND">
<description>Ground Supply Symbol</description>
<gates>
<gate name="1" symbol="GND" x="0" y="0"/>
</gates>
<devices>
<device name="">
<technologies>
<technology name=""/>
</technologies>
</device>
</devices>
</deviceset>
</devicesets>
</library>
</drawing>
</eagle>
